[{
        "scope": "http://fritz.box:49000",
        "method": "GET",
        "path": "/tr64desc.xml",
        "body": "",
        "status": 200,
        "response": "<?xml version=\"1.0\"?>\n<root xmlns=\"urn:dslforum-org:device-1-0\">\n<specVersion>\n<major>1</major>\n<minor>0</minor>\n</specVersion>\n<systemVersion>\n<HW>213</HW>\n<Major>141</Major>\n<Minor>7</Minor>\n<Patch>12</Patch>\n<Buildnumber>71695</Buildnumber>\n<Display>141.07.12</Display>\n</systemVersion>\n<device>\n<deviceType>urn:dslforum-org:device:InternetGatewayDevice:1</deviceType>\n<friendlyName>FRITZ!Box 6490 Cable (kdg)</friendlyName>\n<manufacturer>AVM</manufacturer>\n<manufacturerURL>www.avm.de</manufacturerURL>\n<modelDescription>FRITZ!Box 6490 Cable (kdg)</modelDescription>\n<modelName>FRITZ!Box 6490 Cable (kdg)</modelName>\n<modelNumber> - kdg</modelNumber>\n<modelURL>www.avm.de</modelURL>\n<UDN>uuid:739f2409-bccb-40e7-8e6c-444E6D4E0B9A</UDN>\n<iconList>\n<icon>\n<mimetype>image/gif</mimetype>\n<width>118</width>\n<height>119</height>\n<depth>8</depth>\n<url>/ligd.gif</url>\n</icon>\n</iconList>\n<serviceList>\n<service>\n<serviceType>urn:dslforum-org:service:DeviceInfo:1</serviceType>\n<serviceId>urn:DeviceInfo-com:serviceId:DeviceInfo1</serviceId>\n<controlURL>/upnp/control/deviceinfo</controlURL>\n<eventSubURL>/upnp/control/deviceinfo</eventSubURL>\n<SCPDURL>/deviceinfoSCPD.xml</SCPDURL>\n</service>\n<service>\n<serviceType>urn:dslforum-org:service:DeviceConfig:1</serviceType>\n<serviceId>urn:DeviceConfig-com:serviceId:DeviceConfig1</serviceId>\n<controlURL>/upnp/control/deviceconfig</controlURL>\n<eventSubURL>/upnp/control/deviceconfig</eventSubURL>\n<SCPDURL>/deviceconfigSCPD.xml</SCPDURL>\n</service>\n<service>\n<serviceType>urn:dslforum-org:service:Layer3Forwarding:1</serviceType>\n<serviceId>urn:Layer3Forwarding-com:serviceId:Layer3Forwarding1</serviceId>\n<controlURL>/upnp/control/layer3forwarding</controlURL>\n<eventSubURL>/upnp/control/layer3forwarding</eventSubURL>\n<SCPDURL>/layer3forwardingSCPD.xml</SCPDURL>\n</service>\n<service>\n<serviceType>urn:dslforum-org:service:LANConfigSecurity:1</serviceType>\n<serviceId>urn:LANConfigSecurity-com:serviceId:LANConfigSecurity1</serviceId>\n<controlURL>/upnp/control/lanconfigsecurity</controlURL>\n<eventSubURL>/upnp/control/lanconfigsecurity</eventSubURL>\n<SCPDURL>/lanconfigsecuritySCPD.xml</SCPDURL>\n</service>\n<service>\n<serviceType>urn:dslforum-org:service:ManagementServer:1</serviceType>\n<serviceId>urn:ManagementServer-com:serviceId:ManagementServer1</serviceId>\n<controlURL>/upnp/control/mgmsrv</controlURL>\n<eventSubURL>/upnp/control/mgmsrv</eventSubURL>\n<SCPDURL>/mgmsrvSCPD.xml</SCPDURL>\n</service>\n<service>\n<serviceType>urn:dslforum-org:service:Time:1</serviceType>\n<serviceId>urn:Time-com:serviceId:Time1</serviceId>\n<controlURL>/upnp/control/time</controlURL>\n<eventSubURL>/upnp/control/time</eventSubURL>\n<SCPDURL>/timeSCPD.xml</SCPDURL>\n</service>\n<service>\n<serviceType>urn:dslforum-org:service:UserInterface:1</serviceType>\n<serviceId>urn:UserInterface-com:serviceId:UserInterface1</serviceId>\n<controlURL>/upnp/control/userif</controlURL>\n<eventSubURL>/upnp/control/userif</eventSubURL>\n<SCPDURL>/userifSCPD.xml</SCPDURL>\n</service>\n<service>\n<serviceType>urn:dslforum-org:service:X_AVM-DE_Storage:1</serviceType>\n<serviceId>urn:X_AVM-DE_Storage-com:serviceId:X_AVM-DE_Storage1</serviceId>\n<controlURL>/upnp/control/x_storage</controlURL>\n<eventSubURL>/upnp/control/x_storage</eventSubURL>\n<SCPDURL>/x_storageSCPD.xml</SCPDURL>\n</service>\n<service>\n<serviceType>urn:dslforum-org:service:X_AVM-DE_WebDAVClient:1</serviceType>\n<serviceId>urn:X_AVM-DE_WebDAV-com:serviceId:X_AVM-DE_WebDAVClient1</serviceId>\n<controlURL>/upnp/control/x_webdav</controlURL>\n<eventSubURL>/upnp/control/x_webdav</eventSubURL>\n<SCPDURL>/x_webdavSCPD.xml</SCPDURL>\n</service>\n<service>\n<serviceType>urn:dslforum-org:service:X_AVM-DE_UPnP:1</serviceType>\n<serviceId>urn:X_AVM-DE_UPnP-com:serviceId:X_AVM-DE_UPnP1</serviceId>\n<controlURL>/upnp/control/x_upnp</controlURL>\n<eventSubURL>/upnp/control/x_upnp</eventSubURL>\n<SCPDURL>/x_upnpSCPD.xml</SCPDURL>\n</service>\n<service>\n<serviceType>urn:dslforum-org:service:X_AVM-DE_Speedtest:1</serviceType>\n<serviceId>urn:X_AVM-DE_Speedtest-com:serviceId:X_AVM-DE_Speedtest1</serviceId>\n<controlURL>/upnp/control/x_speedtest</controlURL>\n<eventSubURL>/upnp/control/x_speedtest</eventSubURL>\n<SCPDURL>/x_speedtestSCPD.xml</SCPDURL>\n</service>\n<service>\n<serviceType>urn:dslforum-org:service:X_AVM-DE_RemoteAccess:1</serviceType>\n<serviceId>urn:X_AVM-DE_RemoteAccess-com:serviceId:X_AVM-DE_RemoteAccess1</serviceId>\n<controlURL>/upnp/control/x_remote</controlURL>\n<eventSubURL>/upnp/control/x_remote</eventSubURL>\n<SCPDURL>/x_remoteSCPD.xml</SCPDURL>\n</service>\n<service>\n<serviceType>urn:dslforum-org:service:X_AVM-DE_MyFritz:1</serviceType>\n<serviceId>urn:X_AVM-DE_MyFritz-com:serviceId:X_AVM-DE_MyFritz1</serviceId>\n<controlURL>/upnp/control/x_myfritz</controlURL>\n<eventSubURL>/upnp/control/x_myfritz</eventSubURL>\n<SCPDURL>/x_myfritzSCPD.xml</SCPDURL>\n</service>\n<service>\n<serviceType>urn:dslforum-org:service:X_VoIP:1</serviceType>\n<serviceId>urn:X_VoIP-com:serviceId:X_VoIP1</serviceId>\n<controlURL>/upnp/control/x_voip</controlURL>\n<eventSubURL>/upnp/control/x_voip</eventSubURL>\n<SCPDURL>/x_voipSCPD.xml</SCPDURL>\n</service>\n<service>\n<serviceType>urn:dslforum-org:service:X_AVM-DE_OnTel:1</serviceType>\n<serviceId>urn:X_AVM-DE_OnTel-com:serviceId:X_AVM-DE_OnTel1</serviceId>\n<controlURL>/upnp/control/x_contact</controlURL>\n<eventSubURL>/upnp/control/x_contact</eventSubURL>\n<SCPDURL>/x_contactSCPD.xml</SCPDURL>\n</service>\n<service><serviceType>urn:dslforum-org:service:X_AVM-DE_Dect:1</serviceType><serviceId>urn:X_AVM-DE_Dect-com:serviceId:X_AVM-DE_Dect1</serviceId><controlURL>/upnp/control/x_dect</controlURL><eventSubURL>/upnp/control/x_dect</eventSubURL><SCPDURL>/x_dectSCPD.xml</SCPDURL></service>\n<service><serviceType>urn:dslforum-org:service:X_AVM-DE_TAM:1</serviceType><serviceId>urn:X_AVM-DE_TAM-com:serviceId:X_AVM-DE_TAM1</serviceId><controlURL>/upnp/control/x_tam</controlURL><eventSubURL>/upnp/control/x_tam</eventSubURL><SCPDURL>/x_tamSCPD.xml</SCPDURL></service>\n<service>\n<serviceType>urn:dslforum-org:service:X_AVM-DE_AppSetup:1</serviceType>\n<serviceId>urn:X_AVM-DE_AppSetup-com:serviceId:X_AVM-DE_AppSetup1</serviceId>\n<controlURL>/upnp/control/x_appsetup</controlURL>\n<eventSubURL>/upnp/control/x_appsetup</eventSubURL>\n<SCPDURL>/x_appsetupSCPD.xml</SCPDURL>\n</service>\n<service>\n<serviceType>urn:dslforum-org:service:X_AVM-DE_Homeauto:1</serviceType>\n<serviceId>urn:X_AVM-DE_Homeauto-com:serviceId:X_AVM-DE_Homeauto1</serviceId>\n<controlURL>/upnp/control/x_homeauto</controlURL>\n<eventSubURL>/upnp/control/x_homeauto</eventSubURL>\n<SCPDURL>/x_homeautoSCPD.xml</SCPDURL>\n</service>\n<service>\n<serviceType>urn:dslforum-org:service:X_AVM-DE_Homeplug:1</serviceType>\n<serviceId>urn:X_AVM-DE_Homeplug-com:serviceId:X_AVM-DE_Homeplug1</serviceId>\n<controlURL>/upnp/control/x_homeplug</controlURL>\n<eventSubURL>/upnp/control/x_homeplug</eventSubURL>\n<SCPDURL>/x_homeplugSCPD.xml</SCPDURL>\n</service>\n<service>\n<serviceType>urn:dslforum-org:service:X_AVM-DE_Filelinks:1</serviceType>\n<serviceId>urn:X_AVM-DE_Filelinks-com:serviceId:X_AVM-DE_Filelinks1</serviceId>\n<controlURL>/upnp/control/x_filelinks</controlURL>\n<eventSubURL>/upnp/control/x_filelinks</eventSubURL>\n<SCPDURL>/x_filelinksSCPD.xml</SCPDURL>\n</service>\n<service>\n<serviceType>urn:dslforum-org:service:X_AVM-DE_Auth:1</serviceType>\n<serviceId>urn:X_AVM-DE_Auth-com:serviceId:X_AVM-DE_Auth1</serviceId>\n<controlURL>/upnp/control/x_auth</controlURL>\n<eventSubURL>/upnp/control/x_auth</eventSubURL>\n<SCPDURL>/x_authSCPD.xml</SCPDURL>\n</service>\n</serviceList>\n<deviceList>\n<device>\n<deviceType>urn:dslforum-org:device:LANDevice:1</deviceType>\n<friendlyName>LANDevice - FRITZ!Box 6490 Cable (kdg)</friendlyName>\n<manufacturer>AVM</manufacturer>\n<manufacturerURL>www.avm.de</manufacturerURL>\n<modelDescription>LANDevice - FRITZ!Box 6490 Cable (kdg)</modelDescription>\n<modelName>LANDevice - FRITZ!Box 6490 Cable (kdg)</modelName>\n<modelNumber> - kdg</modelNumber>\n<modelURL>www.avm.de</modelURL>\n<UDN>uuid:75802409-bccb-40e7-8e6b-444E6D4E0B9A</UDN>\n<UPC>AVM TR-064</UPC>\n<serviceList>\n<service>\n<serviceType>urn:dslforum-org:service:WLANConfiguration:1</serviceType>\n<serviceId>urn:WLANConfiguration-com:serviceId:WLANConfiguration1</serviceId>\n<controlURL>/upnp/control/wlanconfig1</controlURL>\n<eventSubURL>/upnp/control/wlanconfig1</eventSubURL>\n<SCPDURL>/wlanconfigSCPD.xml</SCPDURL>\n</service>\n<service><serviceType>urn:dslforum-org:service:WLANConfiguration:2</serviceType><serviceId>urn:WLANConfiguration-com:serviceId:WLANConfiguration2</serviceId><controlURL>/upnp/control/wlanconfig2</controlURL><eventSubURL>/upnp/control/wlanconfig2</eventSubURL><SCPDURL>/wlanconfigSCPD.xml</SCPDURL></service><!-- 2 --><service><serviceType>urn:dslforum-org:service:WLANConfiguration:3</serviceType><serviceId>urn:WLANConfiguration-com:serviceId:WLANConfiguration3</serviceId><controlURL>/upnp/control/wlanconfig3</controlURL><eventSubURL>/upnp/control/wlanconfig3</eventSubURL><SCPDURL>/wlanconfigSCPD.xml</SCPDURL></service>\n<service>\n<serviceType>urn:dslforum-org:service:Hosts:1</serviceType>\n<serviceId>urn:LanDeviceHosts-com:serviceId:Hosts1</serviceId>\n<controlURL>/upnp/control/hosts</controlURL>\n<eventSubURL>/upnp/control/hosts</eventSubURL>\n<SCPDURL>/hostsSCPD.xml</SCPDURL>\n</service>\n<service>\n<serviceType>urn:dslforum-org:service:LANEthernetInterfaceConfig:1</serviceType>\n<serviceId>urn:LANEthernetIfCfg-com:serviceId:LANEthernetInterfaceConfig1</serviceId>\n<controlURL>/upnp/control/lanethernetifcfg</controlURL>\n<eventSubURL>/upnp/control/lanethernetifcfg</eventSubURL>\n<SCPDURL>/ethifconfigSCPD.xml</SCPDURL>\n</service>\n<service>\n<serviceType>urn:dslforum-org:service:LANHostConfigManagement:1</serviceType>\n<serviceId>urn:LANHCfgMgm-com:serviceId:LANHostConfigManagement1</serviceId>\n<controlURL>/upnp/control/lanhostconfigmgm</controlURL>\n<eventSubURL>/upnp/control/lanhostconfigmgm</eventSubURL>\n<SCPDURL>/lanhostconfigmgmSCPD.xml</SCPDURL>\n</service>\n</serviceList>\n</device>\n<device>\n<deviceType>urn:dslforum-org:device:WANDevice:1</deviceType>\n<friendlyName>WANDevice - FRITZ!Box 6490 Cable (kdg)</friendlyName>\n<manufacturer>AVM</manufacturer>\n<manufacturerURL>www.avm.de</manufacturerURL>\n<modelDescription>WANDevice - FRITZ!Box 6490 Cable (kdg)</modelDescription>\n<modelName>WANDevice - FRITZ!Box 6490 Cable (kdg)</modelName>\n<modelNumber> - kdg</modelNumber>\n<modelURL>www.avm.de</modelURL>\n<UDN>uuid:75802409-bccb-40e7-8e6a-444E6D4E0B9A</UDN>\n<UPC>AVM TR-064</UPC>\n<serviceList>\n<service>\n<serviceType>urn:dslforum-org:service:WANCommonInterfaceConfig:1</serviceType>\n<serviceId>urn:WANCIfConfig-com:serviceId:WANCommonInterfaceConfig1</serviceId>\n<controlURL>/upnp/control/wancommonifconfig1</controlURL>\n<eventSubURL>/upnp/control/wancommonifconfig1</eventSubURL>\n<SCPDURL>/wancommonifconfigSCPD.xml</SCPDURL>\n</service>\n<service>\n<serviceType>urn:dslforum-org:service:WANDSLInterfaceConfig:1</serviceType>\n<serviceId>urn:WANDSLIfConfig-com:serviceId:WANDSLInterfaceConfig1</serviceId>\n<controlURL>/upnp/control/wandslifconfig1</controlURL>\n<eventSubURL>/upnp/control/wandslifconfig1</eventSubURL>\n<SCPDURL>/wandslifconfigSCPD.xml</SCPDURL>\n</service>\n</serviceList>\n<deviceList>\n<device>\n<deviceType>urn:dslforum-org:device:WANConnectionDevice:1</deviceType>\n<friendlyName>WANConnectionDevice - FRITZ!Box 6490 Cable (kdg)</friendlyName>\n<manufacturer>AVM</manufacturer>\n<manufacturerURL>www.avm.de</manufacturerURL>\n<modelDescription>WANConnectionDevice - FRITZ!Box 6490 Cable (kdg)</modelDescription>\n<modelName>WANConnectionDevice - FRITZ!Box 6490 Cable (kdg)</modelName>\n<modelNumber> - kdg</modelNumber>\n<modelURL>www.avm.de</modelURL>\n<UDN>uuid:75802409-bccb-40e7-8e69-444E6D4E0B9A</UDN>\n<UPC>AVM TR-064</UPC>\n<serviceList>\n<service>\n<serviceType>urn:dslforum-org:service:WANDSLLinkConfig:1</serviceType>\n<serviceId>urn:WANDSLLinkConfig-com:serviceId:WANDSLLinkConfig1</serviceId>\n<controlURL>/upnp/control/wandsllinkconfig1</controlURL>\n<eventSubURL>/upnp/control/wandsllinkconfig1</eventSubURL>\n<SCPDURL>/wandsllinkconfigSCPD.xml</SCPDURL>\n</service>\n<service>\n<serviceType>urn:dslforum-org:service:WANEthernetLinkConfig:1</serviceType>\n<serviceId>urn:WANEthernetLinkConfig-com:serviceId:WANEthernetLinkConfig1</serviceId>\n<controlURL>/upnp/control/wanethlinkconfig1</controlURL>\n<eventSubURL>/upnp/control/wanethlinkconfig1</eventSubURL>\n<SCPDURL>/wanethlinkconfigSCPD.xml</SCPDURL>\n</service>\n<service>\n<serviceType>urn:dslforum-org:service:WANPPPConnection:1</serviceType>\n<serviceId>urn:WANPPPConnection-com:serviceId:WANPPPConnection1</serviceId>\n<controlURL>/upnp/control/wanpppconn1</controlURL>\n<eventSubURL>/upnp/control/wanpppconn1</eventSubURL>\n<SCPDURL>/wanpppconnSCPD.xml</SCPDURL>\n</service>\n<service>\n<serviceType>urn:dslforum-org:service:WANIPConnection:1</serviceType>\n<serviceId>urn:WANIPConnection-com:serviceId:WANIPConnection1</serviceId>\n<controlURL>/upnp/control/wanipconnection1</controlURL>\n<eventSubURL>/upnp/control/wanipconnection1</eventSubURL>\n<SCPDURL>/wanipconnSCPD.xml</SCPDURL>\n</service>\n</serviceList>\n</device>\n</deviceList>\n</device>\n</deviceList>\n<presentationURL>http://fritz.box</presentationURL>\n</device>\n</root>\n",
        "rawHeaders": [
            "Cache-Control",
            "max-age=120",
            "Connection",
            "close",
            "Content-Length",
            "13156",
            "Content-Type",
            "text/xml",
            "Date",
            "Mon, 16 Dec 2019 21:03:02 GMT",
            "ETag",
            "\"EF6825EC81C797652\"",
            "Expires",
            "Mon, 16 Dec 2019 21:05:02 GMT",
            "Last-Modified",
            "Mon, 16 Dec 2019 20:19:17 GMT",
            "Mime-Version",
            "1.0"
        ],
        "responseIsBinary": false
    },
    {
        "scope": "http://fritz.box:49000",
        "method": "GET",
        "path": "/igddesc.xml",
        "body": "",
        "status": 200,
        "response": "<?xml version=\"1.0\"?>\n<root xmlns=\"urn:schemas-upnp-org:device-1-0\">\n<specVersion>\n<major>1</major>\n<minor>0</minor>\n</specVersion>\n<device>\n<deviceType>urn:schemas-upnp-org:device:InternetGatewayDevice:1</deviceType>\n<friendlyName>FRITZ!Box 6490 Cable (kdg)</friendlyName>\n<manufacturer>AVM Berlin</manufacturer>\n<manufacturerURL>http://www.avm.de</manufacturerURL>\n<modelDescription>FRITZ!Box 6490 Cable (kdg)</modelDescription>\n<modelName>FRITZ!Box 6490 Cable (kdg)</modelName>\n<modelNumber>kdg</modelNumber>\n<modelURL>http://www.avm.de</modelURL>\n<UDN>uuid:75802409-bccb-40e7-8e6c-444E6D4E0B9A</UDN>\n<iconList>\n<icon>\n<mimetype>image/gif</mimetype>\n<width>118</width>\n<height>119</height>\n<depth>8</depth>\n<url>/ligd.gif</url>\n</icon>\n</iconList>\n<serviceList>\n<service>\n<serviceType>urn:schemas-any-com:service:Any:1</serviceType>\n<serviceId>urn:any-com:serviceId:any1</serviceId>\n<controlURL>/igdupnp/control/any</controlURL>\n<eventSubURL>/igdupnp/control/any</eventSubURL>\n<SCPDURL>/any.xml</SCPDURL>\n</service>\n</serviceList>\n<deviceList>\n<device>\n<deviceType>urn:schemas-upnp-org:device:WANDevice:1</deviceType>\n<friendlyName>WANDevice - FRITZ!Box 6490 Cable (kdg)</friendlyName>\n<manufacturer>AVM Berlin</manufacturer>\n<manufacturerURL>www.avm.de</manufacturerURL>\n<modelDescription>WANDevice - FRITZ!Box 6490 Cable (kdg)</modelDescription>\n<modelName>WANDevice - FRITZ!Box 6490 Cable (kdg)</modelName>\n<modelNumber>kdg</modelNumber>\n<modelURL>www.avm.de</modelURL>\n<UDN>uuid:76802409-bccb-40e7-8e6b-444E6D4E0B9A</UDN>\n<UPC>AVM IGD</UPC>\n<serviceList>\n<service>\n<serviceType>urn:schemas-upnp-org:service:WANCommonInterfaceConfig:1</serviceType>\n<serviceId>urn:upnp-org:serviceId:WANCommonIFC1</serviceId>\n<controlURL>/igdupnp/control/WANCommonIFC1</controlURL>\n<eventSubURL>/igdupnp/control/WANCommonIFC1</eventSubURL>\n<SCPDURL>/igdicfgSCPD.xml</SCPDURL>\n</service>\n</serviceList>\n<deviceList>\n<device>\n<deviceType>urn:schemas-upnp-org:device:WANConnectionDevice:1</deviceType>\n<friendlyName>WANConnectionDevice - FRITZ!Box 6490 Cable (kdg)</friendlyName>\n<manufacturer>AVM Berlin</manufacturer>\n<manufacturerURL>www.avm.de</manufacturerURL>\n<modelDescription>WANConnectionDevice - FRITZ!Box 6490 Cable (kdg)</modelDescription>\n<modelName>WANConnectionDevice - FRITZ!Box 6490 Cable (kdg)</modelName>\n<modelNumber>kdg</modelNumber>\n<modelURL>www.avm.de</modelURL>\n<UDN>uuid:76802409-bccb-40e7-8e6a-444E6D4E0B9A</UDN>\n<UPC>AVM IGD</UPC>\n<serviceList>\n<service>\n<serviceType>urn:schemas-upnp-org:service:WANDSLLinkConfig:1</serviceType>\n<serviceId>urn:upnp-org:serviceId:WANDSLLinkC1</serviceId>\n<controlURL>/igdupnp/control/WANDSLLinkC1</controlURL>\n<eventSubURL>/igdupnp/control/WANDSLLinkC1</eventSubURL>\n<SCPDURL>/igddslSCPD.xml</SCPDURL>\n</service>\n<service>\n<serviceType>urn:schemas-upnp-org:service:WANIPConnection:1</serviceType>\n<serviceId>urn:upnp-org:serviceId:WANIPConn1</serviceId>\n<controlURL>/igdupnp/control/WANIPConn1</controlURL>\n<eventSubURL>/igdupnp/control/WANIPConn1</eventSubURL>\n<SCPDURL>/igdconnSCPD.xml</SCPDURL>\n</service>\n<service>\n<serviceType>urn:schemas-upnp-org:service:WANIPv6FirewallControl:1</serviceType>\n<serviceId>urn:upnp-org:serviceId:WANIPv6Firewall1</serviceId>\n<controlURL>/igd2upnp/control/WANIPv6Firewall1</controlURL>\n<eventSubURL>/igd2upnp/control/WANIPv6Firewall1</eventSubURL>\n<SCPDURL>/igd2ipv6fwcSCPD.xml</SCPDURL>\n</service>\n</serviceList>\n</device>\n</deviceList>\n</device>\n</deviceList>\n<presentationURL>http://fritz.box</presentationURL>\n</device>\n</root>\n",
        "rawHeaders": [
            "Cache-Control",
            "max-age=120",
            "Connection",
            "close",
            "Content-Length",
            "3517",
            "Content-Type",
            "text/xml",
            "Date",
            "Mon, 16 Dec 2019 21:03:02 GMT",
            "ETag",
            "\"FA7B3C35310C27FF0\"",
            "Expires",
            "Mon, 16 Dec 2019 21:05:02 GMT",
            "Last-Modified",
            "Mon, 16 Dec 2019 20:19:17 GMT",
            "Mime-Version",
            "1.0"
        ],
        "responseIsBinary": false
    },
    {
        "scope": "http://fritz.box:49000",
        "method": "GET",
        "path": "/hostsSCPD.xml",
        "body": "",
        "status": 200,
        "response": "<?xml version=\"1.0\"?>\n<scpd xmlns=\"urn:dslforum-org:service-1-0\">\n<specVersion>\n<major>1</major>\n<minor>0</minor>\n</specVersion>\n<actionList>\n<action>\n<name>GetHostNumberOfEntries</name>\n<argumentList>\n<argument>\n<name>NewHostNumberOfEntries</name>\n<direction>out</direction>\n<relatedStateVariable>HostNumberOfEntries</relatedStateVariable>\n</argument>\n</argumentList>\n</action>\n<action>\n<name>GetSpecificHostEntry</name>\n<argumentList>\n<argument>\n<name>NewMACAddress</name>\n<direction>in</direction>\n<relatedStateVariable>MACAddress</relatedStateVariable>\n</argument>\n<argument>\n<name>NewIPAddress</name>\n<direction>out</direction>\n<relatedStateVariable>IPAddress</relatedStateVariable>\n</argument>\n<argument>\n<name>NewAddressSource</name>\n<direction>out</direction>\n<relatedStateVariable>AddressSource</relatedStateVariable>\n</argument>\n<argument>\n<name>NewLeaseTimeRemaining</name>\n<direction>out</direction>\n<relatedStateVariable>LeaseTimeRemaining</relatedStateVariable>\n</argument>\n<argument>\n<name>NewInterfaceType</name>\n<direction>out</direction>\n<relatedStateVariable>InterfaceType</relatedStateVariable>\n</argument>\n<argument>\n<name>NewActive</name>\n<direction>out</direction>\n<relatedStateVariable>Active</relatedStateVariable>\n</argument>\n<argument>\n<name>NewHostName</name>\n<direction>out</direction>\n<relatedStateVariable>HostName</relatedStateVariable>\n</argument>\n</argumentList>\n</action>\n<action>\n<name>GetGenericHostEntry</name>\n<argumentList>\n<argument>\n<name>NewIndex</name>\n<direction>in</direction>\n<relatedStateVariable>HostNumberOfEntries</relatedStateVariable>\n</argument>\n<argument>\n<name>NewIPAddress</name>\n<direction>out</direction>\n<relatedStateVariable>IPAddress</relatedStateVariable>\n</argument>\n<argument>\n<name>NewAddressSource</name>\n<direction>out</direction>\n<relatedStateVariable>AddressSource</relatedStateVariable>\n</argument>\n<argument>\n<name>NewLeaseTimeRemaining</name>\n<direction>out</direction>\n<relatedStateVariable>LeaseTimeRemaining</relatedStateVariable>\n</argument>\n<argument>\n<name>NewMACAddress</name>\n<direction>out</direction>\n<relatedStateVariable>MACAddress</relatedStateVariable>\n</argument>\n<argument>\n<name>NewInterfaceType</name>\n<direction>out</direction>\n<relatedStateVariable>InterfaceType</relatedStateVariable>\n</argument>\n<argument>\n<name>NewActive</name>\n<direction>out</direction>\n<relatedStateVariable>Active</relatedStateVariable>\n</argument>\n<argument>\n<name>NewHostName</name>\n<direction>out</direction>\n<relatedStateVariable>HostName</relatedStateVariable>\n</argument>\n</argumentList>\n</action>\n<action>\n<name>X_AVM-DE_GetChangeCounter</name>\n<argumentList>\n<argument>\n<name>NewX_AVM-DE_ChangeCounter</name>\n<direction>out</direction>\n<relatedStateVariable>X_AVM-DE_ChangeCounter</relatedStateVariable>\n</argument>\n</argumentList>\n</action>\n<action>\n<name>X_AVM-DE_SetHostNameByMACAddress</name>\n<argumentList>\n<argument>\n<name>NewMACAddress</name>\n<direction>in</direction>\n<relatedStateVariable>MACAddress</relatedStateVariable>\n</argument>\n<argument>\n<name>NewHostName</name>\n<direction>in</direction>\n<relatedStateVariable>HostName</relatedStateVariable>\n</argument>\n</argumentList>\n</action>\n<action>\n<name>X_AVM-DE_GetAutoWakeOnLANByMACAddress</name>\n<argumentList>\n<argument>\n<name>NewMACAddress</name>\n<direction>in</direction>\n<relatedStateVariable>MACAddress</relatedStateVariable>\n</argument>\n<argument>\n<name>NewAutoWOLEnabled</name>\n<direction>out</direction>\n<relatedStateVariable>AutoWOLEnabled</relatedStateVariable>\n</argument>\n</argumentList>\n</action>\n<action>\n<name>X_AVM-DE_SetAutoWakeOnLANByMACAddress</name>\n<argumentList>\n<argument>\n<name>NewMACAddress</name>\n<direction>in</direction>\n<relatedStateVariable>MACAddress</relatedStateVariable>\n</argument>\n<argument>\n<name>NewAutoWOLEnabled</name>\n<direction>in</direction>\n<relatedStateVariable>AutoWOLEnabled</relatedStateVariable>\n</argument>\n</argumentList>\n</action>\n<action>\n<name>X_AVM-DE_WakeOnLANByMACAddress</name>\n<argumentList>\n<argument>\n<name>NewMACAddress</name>\n<direction>in</direction>\n<relatedStateVariable>MACAddress</relatedStateVariable>\n</argument>\n</argumentList>\n</action>\n<action>\n<name>X_AVM-DE_GetSpecificHostEntryByIP</name>\n<argumentList>\n<argument>\n<name>NewIPAddress</name>\n<direction>in</direction>\n<relatedStateVariable>IPAddress</relatedStateVariable>\n</argument>\n<argument>\n<name>NewMACAddress</name>\n<direction>out</direction>\n<relatedStateVariable>MACAddress</relatedStateVariable>\n</argument>\n<argument>\n<name>NewActive</name>\n<direction>out</direction>\n<relatedStateVariable>Active</relatedStateVariable>\n</argument>\n<argument>\n<name>NewHostName</name>\n<direction>out</direction>\n<relatedStateVariable>HostName</relatedStateVariable>\n</argument>\n<argument>\n<name>NewInterfaceType</name>\n<direction>out</direction>\n<relatedStateVariable>InterfaceType</relatedStateVariable>\n</argument>\n<argument>\n<name>NewX_AVM-DE_Port</name>\n<direction>out</direction>\n<relatedStateVariable>X_AVM-DE_Port</relatedStateVariable>\n</argument>\n<argument>\n<name>NewX_AVM-DE_Speed</name>\n<direction>out</direction>\n<relatedStateVariable>X_AVM-DE_Speed</relatedStateVariable>\n</argument>\n<argument>\n<name>NewX_AVM-DE_UpdateAvailable</name>\n<direction>out</direction>\n<relatedStateVariable>X_AVM-DE_UpdateAvailable</relatedStateVariable>\n</argument>\n<argument>\n<name>NewX_AVM-DE_UpdateSuccessful</name>\n<direction>out</direction>\n<relatedStateVariable>X_AVM-DE_UpdateSuccessful</relatedStateVariable>\n</argument>\n<argument>\n<name>NewX_AVM-DE_InfoURL</name>\n<direction>out</direction>\n<relatedStateVariable>X_AVM-DE_InfoURL</relatedStateVariable>\n</argument>\n<argument>\n<name>NewX_AVM-DE_Model</name>\n<direction>out</direction>\n<relatedStateVariable>X_AVM-DE_Model</relatedStateVariable>\n</argument>\n<argument>\n<name>NewX_AVM-DE_URL</name>\n<direction>out</direction>\n<relatedStateVariable>X_AVM-DE_URL</relatedStateVariable>\n</argument>\n</argumentList>\n</action>\n<action>\n<name>X_AVM-DE_HostsCheckUpdate</name>\n</action>\n<action>\n<name>X_AVM-DE_HostDoUpdate</name>\n<argumentList>\n<argument>\n<name>NewMACAddress</name>\n<direction>in</direction>\n<relatedStateVariable>MACAddress</relatedStateVariable>\n</argument>\n</argumentList>\n</action>\n<action>\n<name>X_AVM-DE_GetHostListPath</name>\n<argumentList>\n<argument>\n<name>NewX_AVM-DE_HostListPath</name>\n<direction>out</direction>\n<relatedStateVariable>X_AVM-DE_HostListPath</relatedStateVariable>\n</argument>\n</argumentList>\n</action>\n<action>\n<name>X_AVM-DE_GetMeshListPath</name>\n<argumentList>\n<argument>\n<name>NewX_AVM-DE_MeshListPath</name>\n<direction>out</direction>\n<relatedStateVariable>X_AVM-DE_MeshListPath</relatedStateVariable>\n</argument>\n</argumentList>\n</action>\n</actionList>\n<serviceStateTable>\n<stateVariable sendEvents=\"yes\">\n<name>HostNumberOfEntries</name>\n<dataType>ui2</dataType>\n<defaultValue>0</defaultValue>\n</stateVariable>\n<stateVariable sendEvents=\"no\">\n<name>MACAddress</name>\n<dataType>string</dataType>\n</stateVariable>\n<stateVariable sendEvents=\"no\">\n<name>IPAddress</name>\n<dataType>string</dataType>\n</stateVariable>\n<stateVariable sendEvents=\"no\">\n<name>AddressSource</name>\n<dataType>string</dataType>\n</stateVariable>\n<stateVariable sendEvents=\"no\">\n<name>LeaseTimeRemaining</name>\n<dataType>i4</dataType>\n<defaultValue>0</defaultValue>\n</stateVariable>\n<stateVariable sendEvents=\"no\">\n<name>InterfaceType</name>\n<dataType>string</dataType>\n</stateVariable>\n<stateVariable sendEvents=\"no\">\n<name>Active</name>\n<dataType>boolean</dataType>\n<defaultValue>0</defaultValue>\n</stateVariable>\n<stateVariable sendEvents=\"no\">\n<name>HostName</name>\n<dataType>string</dataType>\n</stateVariable>\n<stateVariable sendEvents=\"yes\">\n<name>X_AVM-DE_ChangeCounter</name>\n<dataType>ui4</dataType>\n<defaultValue>0</defaultValue>\n</stateVariable>\n<stateVariable sendEvents=\"no\">\n<name>AutoWOLEnabled</name>\n<dataType>boolean</dataType>\n<defaultValue>0</defaultValue>\n</stateVariable>\n<stateVariable sendEvents=\"no\">\n<name>X_AVM-DE_Port</name>\n<dataType>ui4</dataType>\n<defaultValue>0</defaultValue>\n</stateVariable>\n<stateVariable sendEvents=\"no\">\n<name>X_AVM-DE_Speed</name>\n<dataType>ui4</dataType>\n<defaultValue>0</defaultValue>\n</stateVariable>\n<stateVariable sendEvents=\"no\">\n<name>X_AVM-DE_URL</name>\n<dataType>string</dataType>\n</stateVariable>\n<stateVariable sendEvents=\"no\">\n<name>X_AVM-DE_UpdateAvailable</name>\n<dataType>boolean</dataType>\n<defaultValue>0</defaultValue>\n</stateVariable>\n<stateVariable sendEvents=\"no\">\n<name>X_AVM-DE_UpdateSuccessful</name>\n<dataType>string</dataType>\n<allowedValueList>\n<allowedValue>unknown</allowedValue>\n<allowedValue>failed</allowedValue>\n<allowedValue>succeeded</allowedValue>\n</allowedValueList>\n</stateVariable>\n<stateVariable sendEvents=\"no\">\n<name>X_AVM-DE_InfoURL</name>\n<dataType>string</dataType>\n</stateVariable>\n<stateVariable sendEvents=\"no\">\n<name>X_AVM-DE_Model</name>\n<dataType>string</dataType>\n</stateVariable>\n<stateVariable sendEvents=\"no\">\n<name>X_AVM-DE_HostListPath</name>\n<dataType>string</dataType>\n</stateVariable>\n<stateVariable sendEvents=\"no\">\n<name>X_AVM-DE_MeshListPath</name>\n<dataType>string</dataType>\n</stateVariable>\n</serviceStateTable>\n</scpd>\n",
        "rawHeaders": [
            "Cache-Control",
            "max-age=120",
            "Connection",
            "close",
            "Content-Length",
            "9159",
            "Content-Type",
            "text/xml",
            "Date",
            "Mon, 16 Dec 2019 21:03:02 GMT",
            "ETag",
            "\"35EE08F41E0A0F69E\"",
            "Expires",
            "Mon, 16 Dec 2019 21:05:02 GMT",
            "Last-Modified",
            "Wed, 18 Sep 2019 15:20:42 GMT",
            "Mime-Version",
            "1.0"
        ],
        "responseIsBinary": false
    },
    {
        "scope": "http://fritz.box:49000",
        "method": "POST",
        "path": "/upnp/control/hosts",
        "body": "<?xml version=\"1.0\"?><s:Envelope s:encodingStyle=\"http://schemas.xmlsoap.org/soap/encoding/\" xmlns:s=\"http://schemas.xmlsoap.org/soap/envelope/\"><s:Body><u:GetSpecificHostEntry xmlns:u=\"urn:dslforum-org:service:Hosts:1\"><NewMacAddress>88:AE:07:43:2A:EB</NewMacAddress></u:GetSpecificHostEntry></s:Body></s:Envelope>",
        "status": 200,
        "response": "<?xml version=\"1.0\"?>\n<s:Envelope xmlns:s=\"http://schemas.xmlsoap.org/soap/envelope/\" s:encodingStyle=\"http://schemas.xmlsoap.org/soap/encoding/\">\n<s:Body>\n<u:GetSpecificHostEntryResponse xmlns:u=\"urn:dslforum-org:service:Hosts:1\">\n<NewIPAddress>10.1.2.59</NewIPAddress>\n<NewAddressSource>DHCP</NewAddressSource>\n<NewLeaseTimeRemaining>1109547</NewLeaseTimeRemaining>\n<NewInterfaceType>802.11</NewInterfaceType>\n<NewActive>1</NewActive>\n<NewHostName>iPad-2</NewHostName>\n</u:GetSpecificHostEntryResponse>\n</s:Body>\n</s:Envelope>",
        "rawHeaders": [
            "DATE",
            "Mon, 16 Dec 2019 21:03:02 GMT",
            "SERVER",
            "FRITZ!Box 6490 Cable (kdg) UPnP/1.0 AVM FRITZ!Box 6490 Cable (kdg) 141.07.12",
            "CONNECTION",
            "close",
            "CONTENT-LENGTH",
            "533",
            "CONTENT-TYPE",
            "text/xml; charset=\"utf-8\"",
            "EXT",
            ""
        ],
        "responseIsBinary": false
    },
    {
        "scope": "http://fritz.box:49000",
        "method": "POST",
        "path": "/upnp/control/hosts",
        "body": "<?xml version=\"1.0\"?><s:Envelope s:encodingStyle=\"http://schemas.xmlsoap.org/soap/encoding/\" xmlns:s=\"http://schemas.xmlsoap.org/soap/envelope/\"><s:Body><u:GetSpecificHostEntry xmlns:u=\"urn:dslforum-org:service:Hosts:1\"><NewMacAddress>00:1A:22:02:B7:EA</NewMacAddress></u:GetSpecificHostEntry></s:Body></s:Envelope>",
        "status": 200,
        "response": "<?xml version=\"1.0\"?>\n<s:Envelope xmlns:s=\"http://schemas.xmlsoap.org/soap/envelope/\" s:encodingStyle=\"http://schemas.xmlsoap.org/soap/encoding/\">\n<s:Body>\n<u:GetSpecificHostEntryResponse xmlns:u=\"urn:dslforum-org:service:Hosts:1\">\n<NewIPAddress>10.1.2.10</NewIPAddress>\n<NewAddressSource>Static</NewAddressSource>\n<NewLeaseTimeRemaining>0</NewLeaseTimeRemaining>\n<NewInterfaceType>Ethernet</NewInterfaceType>\n<NewActive>1</NewActive>\n<NewHostName>homematic</NewHostName>\n</u:GetSpecificHostEntryResponse>\n</s:Body>\n</s:Envelope>",
        "rawHeaders": [
            "DATE",
            "Mon, 16 Dec 2019 21:03:02 GMT",
            "SERVER",
            "FRITZ!Box 6490 Cable (kdg) UPnP/1.0 AVM FRITZ!Box 6490 Cable (kdg) 141.07.12",
            "CONNECTION",
            "close",
            "CONTENT-LENGTH",
            "534",
            "CONTENT-TYPE",
            "text/xml; charset=\"utf-8\"",
            "EXT",
            ""
        ],
        "responseIsBinary": false
    },
    {
        "scope": "http://fritz.box:49000",
        "method": "GET",
        "path": "/tr64desc.xml",
        "body": "",
        "status": 200,
        "response": "<?xml version=\"1.0\"?>\n<root xmlns=\"urn:dslforum-org:device-1-0\">\n<specVersion>\n<major>1</major>\n<minor>0</minor>\n</specVersion>\n<systemVersion>\n<HW>213</HW>\n<Major>141</Major>\n<Minor>7</Minor>\n<Patch>12</Patch>\n<Buildnumber>71695</Buildnumber>\n<Display>141.07.12</Display>\n</systemVersion>\n<device>\n<deviceType>urn:dslforum-org:device:InternetGatewayDevice:1</deviceType>\n<friendlyName>FRITZ!Box 6490 Cable (kdg)</friendlyName>\n<manufacturer>AVM</manufacturer>\n<manufacturerURL>www.avm.de</manufacturerURL>\n<modelDescription>FRITZ!Box 6490 Cable (kdg)</modelDescription>\n<modelName>FRITZ!Box 6490 Cable (kdg)</modelName>\n<modelNumber> - kdg</modelNumber>\n<modelURL>www.avm.de</modelURL>\n<UDN>uuid:739f2409-bccb-40e7-8e6c-444E6D4E0B9A</UDN>\n<iconList>\n<icon>\n<mimetype>image/gif</mimetype>\n<width>118</width>\n<height>119</height>\n<depth>8</depth>\n<url>/ligd.gif</url>\n</icon>\n</iconList>\n<serviceList>\n<service>\n<serviceType>urn:dslforum-org:service:DeviceInfo:1</serviceType>\n<serviceId>urn:DeviceInfo-com:serviceId:DeviceInfo1</serviceId>\n<controlURL>/upnp/control/deviceinfo</controlURL>\n<eventSubURL>/upnp/control/deviceinfo</eventSubURL>\n<SCPDURL>/deviceinfoSCPD.xml</SCPDURL>\n</service>\n<service>\n<serviceType>urn:dslforum-org:service:DeviceConfig:1</serviceType>\n<serviceId>urn:DeviceConfig-com:serviceId:DeviceConfig1</serviceId>\n<controlURL>/upnp/control/deviceconfig</controlURL>\n<eventSubURL>/upnp/control/deviceconfig</eventSubURL>\n<SCPDURL>/deviceconfigSCPD.xml</SCPDURL>\n</service>\n<service>\n<serviceType>urn:dslforum-org:service:Layer3Forwarding:1</serviceType>\n<serviceId>urn:Layer3Forwarding-com:serviceId:Layer3Forwarding1</serviceId>\n<controlURL>/upnp/control/layer3forwarding</controlURL>\n<eventSubURL>/upnp/control/layer3forwarding</eventSubURL>\n<SCPDURL>/layer3forwardingSCPD.xml</SCPDURL>\n</service>\n<service>\n<serviceType>urn:dslforum-org:service:LANConfigSecurity:1</serviceType>\n<serviceId>urn:LANConfigSecurity-com:serviceId:LANConfigSecurity1</serviceId>\n<controlURL>/upnp/control/lanconfigsecurity</controlURL>\n<eventSubURL>/upnp/control/lanconfigsecurity</eventSubURL>\n<SCPDURL>/lanconfigsecuritySCPD.xml</SCPDURL>\n</service>\n<service>\n<serviceType>urn:dslforum-org:service:ManagementServer:1</serviceType>\n<serviceId>urn:ManagementServer-com:serviceId:ManagementServer1</serviceId>\n<controlURL>/upnp/control/mgmsrv</controlURL>\n<eventSubURL>/upnp/control/mgmsrv</eventSubURL>\n<SCPDURL>/mgmsrvSCPD.xml</SCPDURL>\n</service>\n<service>\n<serviceType>urn:dslforum-org:service:Time:1</serviceType>\n<serviceId>urn:Time-com:serviceId:Time1</serviceId>\n<controlURL>/upnp/control/time</controlURL>\n<eventSubURL>/upnp/control/time</eventSubURL>\n<SCPDURL>/timeSCPD.xml</SCPDURL>\n</service>\n<service>\n<serviceType>urn:dslforum-org:service:UserInterface:1</serviceType>\n<serviceId>urn:UserInterface-com:serviceId:UserInterface1</serviceId>\n<controlURL>/upnp/control/userif</controlURL>\n<eventSubURL>/upnp/control/userif</eventSubURL>\n<SCPDURL>/userifSCPD.xml</SCPDURL>\n</service>\n<service>\n<serviceType>urn:dslforum-org:service:X_AVM-DE_Storage:1</serviceType>\n<serviceId>urn:X_AVM-DE_Storage-com:serviceId:X_AVM-DE_Storage1</serviceId>\n<controlURL>/upnp/control/x_storage</controlURL>\n<eventSubURL>/upnp/control/x_storage</eventSubURL>\n<SCPDURL>/x_storageSCPD.xml</SCPDURL>\n</service>\n<service>\n<serviceType>urn:dslforum-org:service:X_AVM-DE_WebDAVClient:1</serviceType>\n<serviceId>urn:X_AVM-DE_WebDAV-com:serviceId:X_AVM-DE_WebDAVClient1</serviceId>\n<controlURL>/upnp/control/x_webdav</controlURL>\n<eventSubURL>/upnp/control/x_webdav</eventSubURL>\n<SCPDURL>/x_webdavSCPD.xml</SCPDURL>\n</service>\n<service>\n<serviceType>urn:dslforum-org:service:X_AVM-DE_UPnP:1</serviceType>\n<serviceId>urn:X_AVM-DE_UPnP-com:serviceId:X_AVM-DE_UPnP1</serviceId>\n<controlURL>/upnp/control/x_upnp</controlURL>\n<eventSubURL>/upnp/control/x_upnp</eventSubURL>\n<SCPDURL>/x_upnpSCPD.xml</SCPDURL>\n</service>\n<service>\n<serviceType>urn:dslforum-org:service:X_AVM-DE_Speedtest:1</serviceType>\n<serviceId>urn:X_AVM-DE_Speedtest-com:serviceId:X_AVM-DE_Speedtest1</serviceId>\n<controlURL>/upnp/control/x_speedtest</controlURL>\n<eventSubURL>/upnp/control/x_speedtest</eventSubURL>\n<SCPDURL>/x_speedtestSCPD.xml</SCPDURL>\n</service>\n<service>\n<serviceType>urn:dslforum-org:service:X_AVM-DE_RemoteAccess:1</serviceType>\n<serviceId>urn:X_AVM-DE_RemoteAccess-com:serviceId:X_AVM-DE_RemoteAccess1</serviceId>\n<controlURL>/upnp/control/x_remote</controlURL>\n<eventSubURL>/upnp/control/x_remote</eventSubURL>\n<SCPDURL>/x_remoteSCPD.xml</SCPDURL>\n</service>\n<service>\n<serviceType>urn:dslforum-org:service:X_AVM-DE_MyFritz:1</serviceType>\n<serviceId>urn:X_AVM-DE_MyFritz-com:serviceId:X_AVM-DE_MyFritz1</serviceId>\n<controlURL>/upnp/control/x_myfritz</controlURL>\n<eventSubURL>/upnp/control/x_myfritz</eventSubURL>\n<SCPDURL>/x_myfritzSCPD.xml</SCPDURL>\n</service>\n<service>\n<serviceType>urn:dslforum-org:service:X_VoIP:1</serviceType>\n<serviceId>urn:X_VoIP-com:serviceId:X_VoIP1</serviceId>\n<controlURL>/upnp/control/x_voip</controlURL>\n<eventSubURL>/upnp/control/x_voip</eventSubURL>\n<SCPDURL>/x_voipSCPD.xml</SCPDURL>\n</service>\n<service>\n<serviceType>urn:dslforum-org:service:X_AVM-DE_OnTel:1</serviceType>\n<serviceId>urn:X_AVM-DE_OnTel-com:serviceId:X_AVM-DE_OnTel1</serviceId>\n<controlURL>/upnp/control/x_contact</controlURL>\n<eventSubURL>/upnp/control/x_contact</eventSubURL>\n<SCPDURL>/x_contactSCPD.xml</SCPDURL>\n</service>\n<service><serviceType>urn:dslforum-org:service:X_AVM-DE_Dect:1</serviceType><serviceId>urn:X_AVM-DE_Dect-com:serviceId:X_AVM-DE_Dect1</serviceId><controlURL>/upnp/control/x_dect</controlURL><eventSubURL>/upnp/control/x_dect</eventSubURL><SCPDURL>/x_dectSCPD.xml</SCPDURL></service>\n<service><serviceType>urn:dslforum-org:service:X_AVM-DE_TAM:1</serviceType><serviceId>urn:X_AVM-DE_TAM-com:serviceId:X_AVM-DE_TAM1</serviceId><controlURL>/upnp/control/x_tam</controlURL><eventSubURL>/upnp/control/x_tam</eventSubURL><SCPDURL>/x_tamSCPD.xml</SCPDURL></service>\n<service>\n<serviceType>urn:dslforum-org:service:X_AVM-DE_AppSetup:1</serviceType>\n<serviceId>urn:X_AVM-DE_AppSetup-com:serviceId:X_AVM-DE_AppSetup1</serviceId>\n<controlURL>/upnp/control/x_appsetup</controlURL>\n<eventSubURL>/upnp/control/x_appsetup</eventSubURL>\n<SCPDURL>/x_appsetupSCPD.xml</SCPDURL>\n</service>\n<service>\n<serviceType>urn:dslforum-org:service:X_AVM-DE_Homeauto:1</serviceType>\n<serviceId>urn:X_AVM-DE_Homeauto-com:serviceId:X_AVM-DE_Homeauto1</serviceId>\n<controlURL>/upnp/control/x_homeauto</controlURL>\n<eventSubURL>/upnp/control/x_homeauto</eventSubURL>\n<SCPDURL>/x_homeautoSCPD.xml</SCPDURL>\n</service>\n<service>\n<serviceType>urn:dslforum-org:service:X_AVM-DE_Homeplug:1</serviceType>\n<serviceId>urn:X_AVM-DE_Homeplug-com:serviceId:X_AVM-DE_Homeplug1</serviceId>\n<controlURL>/upnp/control/x_homeplug</controlURL>\n<eventSubURL>/upnp/control/x_homeplug</eventSubURL>\n<SCPDURL>/x_homeplugSCPD.xml</SCPDURL>\n</service>\n<service>\n<serviceType>urn:dslforum-org:service:X_AVM-DE_Filelinks:1</serviceType>\n<serviceId>urn:X_AVM-DE_Filelinks-com:serviceId:X_AVM-DE_Filelinks1</serviceId>\n<controlURL>/upnp/control/x_filelinks</controlURL>\n<eventSubURL>/upnp/control/x_filelinks</eventSubURL>\n<SCPDURL>/x_filelinksSCPD.xml</SCPDURL>\n</service>\n<service>\n<serviceType>urn:dslforum-org:service:X_AVM-DE_Auth:1</serviceType>\n<serviceId>urn:X_AVM-DE_Auth-com:serviceId:X_AVM-DE_Auth1</serviceId>\n<controlURL>/upnp/control/x_auth</controlURL>\n<eventSubURL>/upnp/control/x_auth</eventSubURL>\n<SCPDURL>/x_authSCPD.xml</SCPDURL>\n</service>\n</serviceList>\n<deviceList>\n<device>\n<deviceType>urn:dslforum-org:device:LANDevice:1</deviceType>\n<friendlyName>LANDevice - FRITZ!Box 6490 Cable (kdg)</friendlyName>\n<manufacturer>AVM</manufacturer>\n<manufacturerURL>www.avm.de</manufacturerURL>\n<modelDescription>LANDevice - FRITZ!Box 6490 Cable (kdg)</modelDescription>\n<modelName>LANDevice - FRITZ!Box 6490 Cable (kdg)</modelName>\n<modelNumber> - kdg</modelNumber>\n<modelURL>www.avm.de</modelURL>\n<UDN>uuid:75802409-bccb-40e7-8e6b-444E6D4E0B9A</UDN>\n<UPC>AVM TR-064</UPC>\n<serviceList>\n<service>\n<serviceType>urn:dslforum-org:service:WLANConfiguration:1</serviceType>\n<serviceId>urn:WLANConfiguration-com:serviceId:WLANConfiguration1</serviceId>\n<controlURL>/upnp/control/wlanconfig1</controlURL>\n<eventSubURL>/upnp/control/wlanconfig1</eventSubURL>\n<SCPDURL>/wlanconfigSCPD.xml</SCPDURL>\n</service>\n<service><serviceType>urn:dslforum-org:service:WLANConfiguration:2</serviceType><serviceId>urn:WLANConfiguration-com:serviceId:WLANConfiguration2</serviceId><controlURL>/upnp/control/wlanconfig2</controlURL><eventSubURL>/upnp/control/wlanconfig2</eventSubURL><SCPDURL>/wlanconfigSCPD.xml</SCPDURL></service><!-- 2 --><service><serviceType>urn:dslforum-org:service:WLANConfiguration:3</serviceType><serviceId>urn:WLANConfiguration-com:serviceId:WLANConfiguration3</serviceId><controlURL>/upnp/control/wlanconfig3</controlURL><eventSubURL>/upnp/control/wlanconfig3</eventSubURL><SCPDURL>/wlanconfigSCPD.xml</SCPDURL></service>\n<service>\n<serviceType>urn:dslforum-org:service:Hosts:1</serviceType>\n<serviceId>urn:LanDeviceHosts-com:serviceId:Hosts1</serviceId>\n<controlURL>/upnp/control/hosts</controlURL>\n<eventSubURL>/upnp/control/hosts</eventSubURL>\n<SCPDURL>/hostsSCPD.xml</SCPDURL>\n</service>\n<service>\n<serviceType>urn:dslforum-org:service:LANEthernetInterfaceConfig:1</serviceType>\n<serviceId>urn:LANEthernetIfCfg-com:serviceId:LANEthernetInterfaceConfig1</serviceId>\n<controlURL>/upnp/control/lanethernetifcfg</controlURL>\n<eventSubURL>/upnp/control/lanethernetifcfg</eventSubURL>\n<SCPDURL>/ethifconfigSCPD.xml</SCPDURL>\n</service>\n<service>\n<serviceType>urn:dslforum-org:service:LANHostConfigManagement:1</serviceType>\n<serviceId>urn:LANHCfgMgm-com:serviceId:LANHostConfigManagement1</serviceId>\n<controlURL>/upnp/control/lanhostconfigmgm</controlURL>\n<eventSubURL>/upnp/control/lanhostconfigmgm</eventSubURL>\n<SCPDURL>/lanhostconfigmgmSCPD.xml</SCPDURL>\n</service>\n</serviceList>\n</device>\n<device>\n<deviceType>urn:dslforum-org:device:WANDevice:1</deviceType>\n<friendlyName>WANDevice - FRITZ!Box 6490 Cable (kdg)</friendlyName>\n<manufacturer>AVM</manufacturer>\n<manufacturerURL>www.avm.de</manufacturerURL>\n<modelDescription>WANDevice - FRITZ!Box 6490 Cable (kdg)</modelDescription>\n<modelName>WANDevice - FRITZ!Box 6490 Cable (kdg)</modelName>\n<modelNumber> - kdg</modelNumber>\n<modelURL>www.avm.de</modelURL>\n<UDN>uuid:75802409-bccb-40e7-8e6a-444E6D4E0B9A</UDN>\n<UPC>AVM TR-064</UPC>\n<serviceList>\n<service>\n<serviceType>urn:dslforum-org:service:WANCommonInterfaceConfig:1</serviceType>\n<serviceId>urn:WANCIfConfig-com:serviceId:WANCommonInterfaceConfig1</serviceId>\n<controlURL>/upnp/control/wancommonifconfig1</controlURL>\n<eventSubURL>/upnp/control/wancommonifconfig1</eventSubURL>\n<SCPDURL>/wancommonifconfigSCPD.xml</SCPDURL>\n</service>\n<service>\n<serviceType>urn:dslforum-org:service:WANDSLInterfaceConfig:1</serviceType>\n<serviceId>urn:WANDSLIfConfig-com:serviceId:WANDSLInterfaceConfig1</serviceId>\n<controlURL>/upnp/control/wandslifconfig1</controlURL>\n<eventSubURL>/upnp/control/wandslifconfig1</eventSubURL>\n<SCPDURL>/wandslifconfigSCPD.xml</SCPDURL>\n</service>\n</serviceList>\n<deviceList>\n<device>\n<deviceType>urn:dslforum-org:device:WANConnectionDevice:1</deviceType>\n<friendlyName>WANConnectionDevice - FRITZ!Box 6490 Cable (kdg)</friendlyName>\n<manufacturer>AVM</manufacturer>\n<manufacturerURL>www.avm.de</manufacturerURL>\n<modelDescription>WANConnectionDevice - FRITZ!Box 6490 Cable (kdg)</modelDescription>\n<modelName>WANConnectionDevice - FRITZ!Box 6490 Cable (kdg)</modelName>\n<modelNumber> - kdg</modelNumber>\n<modelURL>www.avm.de</modelURL>\n<UDN>uuid:75802409-bccb-40e7-8e69-444E6D4E0B9A</UDN>\n<UPC>AVM TR-064</UPC>\n<serviceList>\n<service>\n<serviceType>urn:dslforum-org:service:WANDSLLinkConfig:1</serviceType>\n<serviceId>urn:WANDSLLinkConfig-com:serviceId:WANDSLLinkConfig1</serviceId>\n<controlURL>/upnp/control/wandsllinkconfig1</controlURL>\n<eventSubURL>/upnp/control/wandsllinkconfig1</eventSubURL>\n<SCPDURL>/wandsllinkconfigSCPD.xml</SCPDURL>\n</service>\n<service>\n<serviceType>urn:dslforum-org:service:WANEthernetLinkConfig:1</serviceType>\n<serviceId>urn:WANEthernetLinkConfig-com:serviceId:WANEthernetLinkConfig1</serviceId>\n<controlURL>/upnp/control/wanethlinkconfig1</controlURL>\n<eventSubURL>/upnp/control/wanethlinkconfig1</eventSubURL>\n<SCPDURL>/wanethlinkconfigSCPD.xml</SCPDURL>\n</service>\n<service>\n<serviceType>urn:dslforum-org:service:WANPPPConnection:1</serviceType>\n<serviceId>urn:WANPPPConnection-com:serviceId:WANPPPConnection1</serviceId>\n<controlURL>/upnp/control/wanpppconn1</controlURL>\n<eventSubURL>/upnp/control/wanpppconn1</eventSubURL>\n<SCPDURL>/wanpppconnSCPD.xml</SCPDURL>\n</service>\n<service>\n<serviceType>urn:dslforum-org:service:WANIPConnection:1</serviceType>\n<serviceId>urn:WANIPConnection-com:serviceId:WANIPConnection1</serviceId>\n<controlURL>/upnp/control/wanipconnection1</controlURL>\n<eventSubURL>/upnp/control/wanipconnection1</eventSubURL>\n<SCPDURL>/wanipconnSCPD.xml</SCPDURL>\n</service>\n</serviceList>\n</device>\n</deviceList>\n</device>\n</deviceList>\n<presentationURL>http://fritz.box</presentationURL>\n</device>\n</root>\n",
        "rawHeaders": [
            "Cache-Control",
            "max-age=120",
            "Connection",
            "close",
            "Content-Length",
            "13156",
            "Content-Type",
            "text/xml",
            "Date",
            "Mon, 16 Dec 2019 21:17:19 GMT",
            "ETag",
            "\"EF6825EC81C797652\"",
            "Expires",
            "Mon, 16 Dec 2019 21:19:19 GMT",
            "Last-Modified",
            "Mon, 16 Dec 2019 20:19:17 GMT",
            "Mime-Version",
            "1.0"
        ],
        "responseIsBinary": false
    },
    {
        "scope": "http://fritz.box:49000",
        "method": "GET",
        "path": "/igddesc.xml",
        "body": "",
        "status": 200,
        "response": "<?xml version=\"1.0\"?>\n<root xmlns=\"urn:schemas-upnp-org:device-1-0\">\n<specVersion>\n<major>1</major>\n<minor>0</minor>\n</specVersion>\n<device>\n<deviceType>urn:schemas-upnp-org:device:InternetGatewayDevice:1</deviceType>\n<friendlyName>FRITZ!Box 6490 Cable (kdg)</friendlyName>\n<manufacturer>AVM Berlin</manufacturer>\n<manufacturerURL>http://www.avm.de</manufacturerURL>\n<modelDescription>FRITZ!Box 6490 Cable (kdg)</modelDescription>\n<modelName>FRITZ!Box 6490 Cable (kdg)</modelName>\n<modelNumber>kdg</modelNumber>\n<modelURL>http://www.avm.de</modelURL>\n<UDN>uuid:75802409-bccb-40e7-8e6c-444E6D4E0B9A</UDN>\n<iconList>\n<icon>\n<mimetype>image/gif</mimetype>\n<width>118</width>\n<height>119</height>\n<depth>8</depth>\n<url>/ligd.gif</url>\n</icon>\n</iconList>\n<serviceList>\n<service>\n<serviceType>urn:schemas-any-com:service:Any:1</serviceType>\n<serviceId>urn:any-com:serviceId:any1</serviceId>\n<controlURL>/igdupnp/control/any</controlURL>\n<eventSubURL>/igdupnp/control/any</eventSubURL>\n<SCPDURL>/any.xml</SCPDURL>\n</service>\n</serviceList>\n<deviceList>\n<device>\n<deviceType>urn:schemas-upnp-org:device:WANDevice:1</deviceType>\n<friendlyName>WANDevice - FRITZ!Box 6490 Cable (kdg)</friendlyName>\n<manufacturer>AVM Berlin</manufacturer>\n<manufacturerURL>www.avm.de</manufacturerURL>\n<modelDescription>WANDevice - FRITZ!Box 6490 Cable (kdg)</modelDescription>\n<modelName>WANDevice - FRITZ!Box 6490 Cable (kdg)</modelName>\n<modelNumber>kdg</modelNumber>\n<modelURL>www.avm.de</modelURL>\n<UDN>uuid:76802409-bccb-40e7-8e6b-444E6D4E0B9A</UDN>\n<UPC>AVM IGD</UPC>\n<serviceList>\n<service>\n<serviceType>urn:schemas-upnp-org:service:WANCommonInterfaceConfig:1</serviceType>\n<serviceId>urn:upnp-org:serviceId:WANCommonIFC1</serviceId>\n<controlURL>/igdupnp/control/WANCommonIFC1</controlURL>\n<eventSubURL>/igdupnp/control/WANCommonIFC1</eventSubURL>\n<SCPDURL>/igdicfgSCPD.xml</SCPDURL>\n</service>\n</serviceList>\n<deviceList>\n<device>\n<deviceType>urn:schemas-upnp-org:device:WANConnectionDevice:1</deviceType>\n<friendlyName>WANConnectionDevice - FRITZ!Box 6490 Cable (kdg)</friendlyName>\n<manufacturer>AVM Berlin</manufacturer>\n<manufacturerURL>www.avm.de</manufacturerURL>\n<modelDescription>WANConnectionDevice - FRITZ!Box 6490 Cable (kdg)</modelDescription>\n<modelName>WANConnectionDevice - FRITZ!Box 6490 Cable (kdg)</modelName>\n<modelNumber>kdg</modelNumber>\n<modelURL>www.avm.de</modelURL>\n<UDN>uuid:76802409-bccb-40e7-8e6a-444E6D4E0B9A</UDN>\n<UPC>AVM IGD</UPC>\n<serviceList>\n<service>\n<serviceType>urn:schemas-upnp-org:service:WANDSLLinkConfig:1</serviceType>\n<serviceId>urn:upnp-org:serviceId:WANDSLLinkC1</serviceId>\n<controlURL>/igdupnp/control/WANDSLLinkC1</controlURL>\n<eventSubURL>/igdupnp/control/WANDSLLinkC1</eventSubURL>\n<SCPDURL>/igddslSCPD.xml</SCPDURL>\n</service>\n<service>\n<serviceType>urn:schemas-upnp-org:service:WANIPConnection:1</serviceType>\n<serviceId>urn:upnp-org:serviceId:WANIPConn1</serviceId>\n<controlURL>/igdupnp/control/WANIPConn1</controlURL>\n<eventSubURL>/igdupnp/control/WANIPConn1</eventSubURL>\n<SCPDURL>/igdconnSCPD.xml</SCPDURL>\n</service>\n<service>\n<serviceType>urn:schemas-upnp-org:service:WANIPv6FirewallControl:1</serviceType>\n<serviceId>urn:upnp-org:serviceId:WANIPv6Firewall1</serviceId>\n<controlURL>/igd2upnp/control/WANIPv6Firewall1</controlURL>\n<eventSubURL>/igd2upnp/control/WANIPv6Firewall1</eventSubURL>\n<SCPDURL>/igd2ipv6fwcSCPD.xml</SCPDURL>\n</service>\n</serviceList>\n</device>\n</deviceList>\n</device>\n</deviceList>\n<presentationURL>http://fritz.box</presentationURL>\n</device>\n</root>\n",
        "rawHeaders": [
            "Cache-Control",
            "max-age=120",
            "Connection",
            "close",
            "Content-Length",
            "3517",
            "Content-Type",
            "text/xml",
            "Date",
            "Mon, 16 Dec 2019 21:17:19 GMT",
            "ETag",
            "\"FA7B3C35310C27FF0\"",
            "Expires",
            "Mon, 16 Dec 2019 21:19:19 GMT",
            "Last-Modified",
            "Mon, 16 Dec 2019 20:19:17 GMT",
            "Mime-Version",
            "1.0"
        ],
        "responseIsBinary": false
    },
    {
        "scope": "http://fritz.box:49000",
        "method": "GET",
        "path": "/hostsSCPD.xml",
        "body": "",
        "status": 200,
        "response": "<?xml version=\"1.0\"?>\n<scpd xmlns=\"urn:dslforum-org:service-1-0\">\n<specVersion>\n<major>1</major>\n<minor>0</minor>\n</specVersion>\n<actionList>\n<action>\n<name>GetHostNumberOfEntries</name>\n<argumentList>\n<argument>\n<name>NewHostNumberOfEntries</name>\n<direction>out</direction>\n<relatedStateVariable>HostNumberOfEntries</relatedStateVariable>\n</argument>\n</argumentList>\n</action>\n<action>\n<name>GetSpecificHostEntry</name>\n<argumentList>\n<argument>\n<name>NewMACAddress</name>\n<direction>in</direction>\n<relatedStateVariable>MACAddress</relatedStateVariable>\n</argument>\n<argument>\n<name>NewIPAddress</name>\n<direction>out</direction>\n<relatedStateVariable>IPAddress</relatedStateVariable>\n</argument>\n<argument>\n<name>NewAddressSource</name>\n<direction>out</direction>\n<relatedStateVariable>AddressSource</relatedStateVariable>\n</argument>\n<argument>\n<name>NewLeaseTimeRemaining</name>\n<direction>out</direction>\n<relatedStateVariable>LeaseTimeRemaining</relatedStateVariable>\n</argument>\n<argument>\n<name>NewInterfaceType</name>\n<direction>out</direction>\n<relatedStateVariable>InterfaceType</relatedStateVariable>\n</argument>\n<argument>\n<name>NewActive</name>\n<direction>out</direction>\n<relatedStateVariable>Active</relatedStateVariable>\n</argument>\n<argument>\n<name>NewHostName</name>\n<direction>out</direction>\n<relatedStateVariable>HostName</relatedStateVariable>\n</argument>\n</argumentList>\n</action>\n<action>\n<name>GetGenericHostEntry</name>\n<argumentList>\n<argument>\n<name>NewIndex</name>\n<direction>in</direction>\n<relatedStateVariable>HostNumberOfEntries</relatedStateVariable>\n</argument>\n<argument>\n<name>NewIPAddress</name>\n<direction>out</direction>\n<relatedStateVariable>IPAddress</relatedStateVariable>\n</argument>\n<argument>\n<name>NewAddressSource</name>\n<direction>out</direction>\n<relatedStateVariable>AddressSource</relatedStateVariable>\n</argument>\n<argument>\n<name>NewLeaseTimeRemaining</name>\n<direction>out</direction>\n<relatedStateVariable>LeaseTimeRemaining</relatedStateVariable>\n</argument>\n<argument>\n<name>NewMACAddress</name>\n<direction>out</direction>\n<relatedStateVariable>MACAddress</relatedStateVariable>\n</argument>\n<argument>\n<name>NewInterfaceType</name>\n<direction>out</direction>\n<relatedStateVariable>InterfaceType</relatedStateVariable>\n</argument>\n<argument>\n<name>NewActive</name>\n<direction>out</direction>\n<relatedStateVariable>Active</relatedStateVariable>\n</argument>\n<argument>\n<name>NewHostName</name>\n<direction>out</direction>\n<relatedStateVariable>HostName</relatedStateVariable>\n</argument>\n</argumentList>\n</action>\n<action>\n<name>X_AVM-DE_GetChangeCounter</name>\n<argumentList>\n<argument>\n<name>NewX_AVM-DE_ChangeCounter</name>\n<direction>out</direction>\n<relatedStateVariable>X_AVM-DE_ChangeCounter</relatedStateVariable>\n</argument>\n</argumentList>\n</action>\n<action>\n<name>X_AVM-DE_SetHostNameByMACAddress</name>\n<argumentList>\n<argument>\n<name>NewMACAddress</name>\n<direction>in</direction>\n<relatedStateVariable>MACAddress</relatedStateVariable>\n</argument>\n<argument>\n<name>NewHostName</name>\n<direction>in</direction>\n<relatedStateVariable>HostName</relatedStateVariable>\n</argument>\n</argumentList>\n</action>\n<action>\n<name>X_AVM-DE_GetAutoWakeOnLANByMACAddress</name>\n<argumentList>\n<argument>\n<name>NewMACAddress</name>\n<direction>in</direction>\n<relatedStateVariable>MACAddress</relatedStateVariable>\n</argument>\n<argument>\n<name>NewAutoWOLEnabled</name>\n<direction>out</direction>\n<relatedStateVariable>AutoWOLEnabled</relatedStateVariable>\n</argument>\n</argumentList>\n</action>\n<action>\n<name>X_AVM-DE_SetAutoWakeOnLANByMACAddress</name>\n<argumentList>\n<argument>\n<name>NewMACAddress</name>\n<direction>in</direction>\n<relatedStateVariable>MACAddress</relatedStateVariable>\n</argument>\n<argument>\n<name>NewAutoWOLEnabled</name>\n<direction>in</direction>\n<relatedStateVariable>AutoWOLEnabled</relatedStateVariable>\n</argument>\n</argumentList>\n</action>\n<action>\n<name>X_AVM-DE_WakeOnLANByMACAddress</name>\n<argumentList>\n<argument>\n<name>NewMACAddress</name>\n<direction>in</direction>\n<relatedStateVariable>MACAddress</relatedStateVariable>\n</argument>\n</argumentList>\n</action>\n<action>\n<name>X_AVM-DE_GetSpecificHostEntryByIP</name>\n<argumentList>\n<argument>\n<name>NewIPAddress</name>\n<direction>in</direction>\n<relatedStateVariable>IPAddress</relatedStateVariable>\n</argument>\n<argument>\n<name>NewMACAddress</name>\n<direction>out</direction>\n<relatedStateVariable>MACAddress</relatedStateVariable>\n</argument>\n<argument>\n<name>NewActive</name>\n<direction>out</direction>\n<relatedStateVariable>Active</relatedStateVariable>\n</argument>\n<argument>\n<name>NewHostName</name>\n<direction>out</direction>\n<relatedStateVariable>HostName</relatedStateVariable>\n</argument>\n<argument>\n<name>NewInterfaceType</name>\n<direction>out</direction>\n<relatedStateVariable>InterfaceType</relatedStateVariable>\n</argument>\n<argument>\n<name>NewX_AVM-DE_Port</name>\n<direction>out</direction>\n<relatedStateVariable>X_AVM-DE_Port</relatedStateVariable>\n</argument>\n<argument>\n<name>NewX_AVM-DE_Speed</name>\n<direction>out</direction>\n<relatedStateVariable>X_AVM-DE_Speed</relatedStateVariable>\n</argument>\n<argument>\n<name>NewX_AVM-DE_UpdateAvailable</name>\n<direction>out</direction>\n<relatedStateVariable>X_AVM-DE_UpdateAvailable</relatedStateVariable>\n</argument>\n<argument>\n<name>NewX_AVM-DE_UpdateSuccessful</name>\n<direction>out</direction>\n<relatedStateVariable>X_AVM-DE_UpdateSuccessful</relatedStateVariable>\n</argument>\n<argument>\n<name>NewX_AVM-DE_InfoURL</name>\n<direction>out</direction>\n<relatedStateVariable>X_AVM-DE_InfoURL</relatedStateVariable>\n</argument>\n<argument>\n<name>NewX_AVM-DE_Model</name>\n<direction>out</direction>\n<relatedStateVariable>X_AVM-DE_Model</relatedStateVariable>\n</argument>\n<argument>\n<name>NewX_AVM-DE_URL</name>\n<direction>out</direction>\n<relatedStateVariable>X_AVM-DE_URL</relatedStateVariable>\n</argument>\n</argumentList>\n</action>\n<action>\n<name>X_AVM-DE_HostsCheckUpdate</name>\n</action>\n<action>\n<name>X_AVM-DE_HostDoUpdate</name>\n<argumentList>\n<argument>\n<name>NewMACAddress</name>\n<direction>in</direction>\n<relatedStateVariable>MACAddress</relatedStateVariable>\n</argument>\n</argumentList>\n</action>\n<action>\n<name>X_AVM-DE_GetHostListPath</name>\n<argumentList>\n<argument>\n<name>NewX_AVM-DE_HostListPath</name>\n<direction>out</direction>\n<relatedStateVariable>X_AVM-DE_HostListPath</relatedStateVariable>\n</argument>\n</argumentList>\n</action>\n<action>\n<name>X_AVM-DE_GetMeshListPath</name>\n<argumentList>\n<argument>\n<name>NewX_AVM-DE_MeshListPath</name>\n<direction>out</direction>\n<relatedStateVariable>X_AVM-DE_MeshListPath</relatedStateVariable>\n</argument>\n</argumentList>\n</action>\n</actionList>\n<serviceStateTable>\n<stateVariable sendEvents=\"yes\">\n<name>HostNumberOfEntries</name>\n<dataType>ui2</dataType>\n<defaultValue>0</defaultValue>\n</stateVariable>\n<stateVariable sendEvents=\"no\">\n<name>MACAddress</name>\n<dataType>string</dataType>\n</stateVariable>\n<stateVariable sendEvents=\"no\">\n<name>IPAddress</name>\n<dataType>string</dataType>\n</stateVariable>\n<stateVariable sendEvents=\"no\">\n<name>AddressSource</name>\n<dataType>string</dataType>\n</stateVariable>\n<stateVariable sendEvents=\"no\">\n<name>LeaseTimeRemaining</name>\n<dataType>i4</dataType>\n<defaultValue>0</defaultValue>\n</stateVariable>\n<stateVariable sendEvents=\"no\">\n<name>InterfaceType</name>\n<dataType>string</dataType>\n</stateVariable>\n<stateVariable sendEvents=\"no\">\n<name>Active</name>\n<dataType>boolean</dataType>\n<defaultValue>0</defaultValue>\n</stateVariable>\n<stateVariable sendEvents=\"no\">\n<name>HostName</name>\n<dataType>string</dataType>\n</stateVariable>\n<stateVariable sendEvents=\"yes\">\n<name>X_AVM-DE_ChangeCounter</name>\n<dataType>ui4</dataType>\n<defaultValue>0</defaultValue>\n</stateVariable>\n<stateVariable sendEvents=\"no\">\n<name>AutoWOLEnabled</name>\n<dataType>boolean</dataType>\n<defaultValue>0</defaultValue>\n</stateVariable>\n<stateVariable sendEvents=\"no\">\n<name>X_AVM-DE_Port</name>\n<dataType>ui4</dataType>\n<defaultValue>0</defaultValue>\n</stateVariable>\n<stateVariable sendEvents=\"no\">\n<name>X_AVM-DE_Speed</name>\n<dataType>ui4</dataType>\n<defaultValue>0</defaultValue>\n</stateVariable>\n<stateVariable sendEvents=\"no\">\n<name>X_AVM-DE_URL</name>\n<dataType>string</dataType>\n</stateVariable>\n<stateVariable sendEvents=\"no\">\n<name>X_AVM-DE_UpdateAvailable</name>\n<dataType>boolean</dataType>\n<defaultValue>0</defaultValue>\n</stateVariable>\n<stateVariable sendEvents=\"no\">\n<name>X_AVM-DE_UpdateSuccessful</name>\n<dataType>string</dataType>\n<allowedValueList>\n<allowedValue>unknown</allowedValue>\n<allowedValue>failed</allowedValue>\n<allowedValue>succeeded</allowedValue>\n</allowedValueList>\n</stateVariable>\n<stateVariable sendEvents=\"no\">\n<name>X_AVM-DE_InfoURL</name>\n<dataType>string</dataType>\n</stateVariable>\n<stateVariable sendEvents=\"no\">\n<name>X_AVM-DE_Model</name>\n<dataType>string</dataType>\n</stateVariable>\n<stateVariable sendEvents=\"no\">\n<name>X_AVM-DE_HostListPath</name>\n<dataType>string</dataType>\n</stateVariable>\n<stateVariable sendEvents=\"no\">\n<name>X_AVM-DE_MeshListPath</name>\n<dataType>string</dataType>\n</stateVariable>\n</serviceStateTable>\n</scpd>\n",
        "rawHeaders": [
            "Cache-Control",
            "max-age=120",
            "Connection",
            "close",
            "Content-Length",
            "9159",
            "Content-Type",
            "text/xml",
            "Date",
            "Mon, 16 Dec 2019 21:17:19 GMT",
            "ETag",
            "\"35EE08F41E0A0F69E\"",
            "Expires",
            "Mon, 16 Dec 2019 21:19:19 GMT",
            "Last-Modified",
            "Wed, 18 Sep 2019 15:20:42 GMT",
            "Mime-Version",
            "1.0"
        ],
        "responseIsBinary": false
    },
    {
        "scope": "http://fritz.box:49000",
        "method": "POST",
        "path": "/upnp/control/hosts",
        "body": "<?xml version=\"1.0\"?><s:Envelope s:encodingStyle=\"http://schemas.xmlsoap.org/soap/encoding/\" xmlns:s=\"http://schemas.xmlsoap.org/soap/envelope/\"><s:Body><u:GetHostNumberOfEntries xmlns:u=\"urn:dslforum-org:service:Hosts:1\"/></s:Body></s:Envelope>",
        "status": 200,
        "response": "<?xml version=\"1.0\"?>\n<s:Envelope xmlns:s=\"http://schemas.xmlsoap.org/soap/envelope/\" s:encodingStyle=\"http://schemas.xmlsoap.org/soap/encoding/\">\n<s:Body>\n<u:GetHostNumberOfEntriesResponse xmlns:u=\"urn:dslforum-org:service:Hosts:1\">\n<NewHostNumberOfEntries>17</NewHostNumberOfEntries>\n</u:GetHostNumberOfEntriesResponse>\n</s:Body>\n</s:Envelope>",
        "rawHeaders": [
            "DATE",
            "Mon, 16 Dec 2019 21:17:20 GMT",
            "SERVER",
            "FRITZ!Box 6490 Cable (kdg) UPnP/1.0 AVM FRITZ!Box 6490 Cable (kdg) 141.07.12",
            "CONNECTION",
            "close",
            "CONTENT-LENGTH",
            "345",
            "CONTENT-TYPE",
            "text/xml; charset=\"utf-8\"",
            "EXT",
            ""
        ],
        "responseIsBinary": false
    },
    {
        "scope": "http://fritz.box:49000",
        "method": "POST",
        "path": "/upnp/control/hosts",
        "body": "<?xml version=\"1.0\"?><s:Envelope s:encodingStyle=\"http://schemas.xmlsoap.org/soap/encoding/\" xmlns:s=\"http://schemas.xmlsoap.org/soap/envelope/\"><s:Body><u:GetGenericHostEntry xmlns:u=\"urn:dslforum-org:service:Hosts:1\"><NewIndex>1</NewIndex></u:GetGenericHostEntry></s:Body></s:Envelope>",
        "status": 200,
        "response": "<?xml version=\"1.0\"?>\n<s:Envelope xmlns:s=\"http://schemas.xmlsoap.org/soap/envelope/\" s:encodingStyle=\"http://schemas.xmlsoap.org/soap/encoding/\">\n<s:Body>\n<u:GetGenericHostEntryResponse xmlns:u=\"urn:dslforum-org:service:Hosts:1\">\n<NewIPAddress>10.1.2.63</NewIPAddress>\n<NewAddressSource>DHCP</NewAddressSource>\n<NewLeaseTimeRemaining>0</NewLeaseTimeRemaining>\n<NewMACAddress>28:CF:DA:13:5A:10</NewMACAddress>\n<NewInterfaceType></NewInterfaceType>\n<NewActive>0</NewActive>\n<NewHostName>AppleTV</NewHostName>\n</u:GetGenericHostEntryResponse>\n</s:Body>\n</s:Envelope>",
        "rawHeaders": [
            "DATE",
            "Mon, 16 Dec 2019 21:17:20 GMT",
            "SERVER",
            "FRITZ!Box 6490 Cable (kdg) UPnP/1.0 AVM FRITZ!Box 6490 Cable (kdg) 141.07.12",
            "CONNECTION",
            "close",
            "CONTENT-LENGTH",
            "569",
            "CONTENT-TYPE",
            "text/xml; charset=\"utf-8\"",
            "EXT",
            ""
        ],
        "responseIsBinary": false
    },
    {
        "scope": "http://fritz.box:49000",
        "method": "POST",
        "path": "/upnp/control/hosts",
        "body": "<?xml version=\"1.0\"?><s:Envelope s:encodingStyle=\"http://schemas.xmlsoap.org/soap/encoding/\" xmlns:s=\"http://schemas.xmlsoap.org/soap/envelope/\"><s:Body><u:GetGenericHostEntry xmlns:u=\"urn:dslforum-org:service:Hosts:1\"><NewIndex>0</NewIndex></u:GetGenericHostEntry></s:Body></s:Envelope>",
        "status": 200,
        "response": "<?xml version=\"1.0\"?>\n<s:Envelope xmlns:s=\"http://schemas.xmlsoap.org/soap/envelope/\" s:encodingStyle=\"http://schemas.xmlsoap.org/soap/encoding/\">\n<s:Body>\n<u:GetGenericHostEntryResponse xmlns:u=\"urn:dslforum-org:service:Hosts:1\">\n<NewIPAddress>10.1.2.51</NewIPAddress>\n<NewAddressSource>DHCP</NewAddressSource>\n<NewLeaseTimeRemaining>1112398</NewLeaseTimeRemaining>\n<NewMACAddress>28:CF:DA:13:5A:11</NewMACAddress>\n<NewInterfaceType>Ethernet</NewInterfaceType>\n<NewActive>1</NewActive>\n<NewHostName>AppleTV</NewHostName>\n</u:GetGenericHostEntryResponse>\n</s:Body>\n</s:Envelope>",
        "rawHeaders": [
            "DATE",
            "Mon, 16 Dec 2019 21:17:20 GMT",
            "SERVER",
            "FRITZ!Box 6490 Cable (kdg) UPnP/1.0 AVM FRITZ!Box 6490 Cable (kdg) 141.07.12",
            "CONNECTION",
            "close",
            "CONTENT-LENGTH",
            "583",
            "CONTENT-TYPE",
            "text/xml; charset=\"utf-8\"",
            "EXT",
            ""
        ],
        "responseIsBinary": false
    },
    {
        "scope": "http://fritz.box:49000",
        "method": "POST",
        "path": "/upnp/control/hosts",
        "body": "<?xml version=\"1.0\"?><s:Envelope s:encodingStyle=\"http://schemas.xmlsoap.org/soap/encoding/\" xmlns:s=\"http://schemas.xmlsoap.org/soap/envelope/\"><s:Body><u:GetGenericHostEntry xmlns:u=\"urn:dslforum-org:service:Hosts:1\"><NewIndex>2</NewIndex></u:GetGenericHostEntry></s:Body></s:Envelope>",
        "status": 200,
        "response": "<?xml version=\"1.0\"?>\n<s:Envelope xmlns:s=\"http://schemas.xmlsoap.org/soap/envelope/\" s:encodingStyle=\"http://schemas.xmlsoap.org/soap/encoding/\">\n<s:Body>\n<u:GetGenericHostEntryResponse xmlns:u=\"urn:dslforum-org:service:Hosts:1\">\n<NewIPAddress>10.1.2.52</NewIPAddress>\n<NewAddressSource>DHCP</NewAddressSource>\n<NewLeaseTimeRemaining>622583</NewLeaseTimeRemaining>\n<NewMACAddress>FC:91:14:03:9D:2A</NewMACAddress>\n<NewInterfaceType>Ethernet</NewInterfaceType>\n<NewActive>1</NewActive>\n<NewHostName>GigaTV-4K-STB</NewHostName>\n</u:GetGenericHostEntryResponse>\n</s:Body>\n</s:Envelope>",
        "rawHeaders": [
            "DATE",
            "Mon, 16 Dec 2019 21:17:20 GMT",
            "SERVER",
            "FRITZ!Box 6490 Cable (kdg) UPnP/1.0 AVM FRITZ!Box 6490 Cable (kdg) 141.07.12",
            "CONNECTION",
            "close",
            "CONTENT-LENGTH",
            "588",
            "CONTENT-TYPE",
            "text/xml; charset=\"utf-8\"",
            "EXT",
            ""
        ],
        "responseIsBinary": false
    },
    {
        "scope": "http://fritz.box:49000",
        "method": "POST",
        "path": "/upnp/control/hosts",
        "body": "<?xml version=\"1.0\"?><s:Envelope s:encodingStyle=\"http://schemas.xmlsoap.org/soap/encoding/\" xmlns:s=\"http://schemas.xmlsoap.org/soap/envelope/\"><s:Body><u:GetGenericHostEntry xmlns:u=\"urn:dslforum-org:service:Hosts:1\"><NewIndex>4</NewIndex></u:GetGenericHostEntry></s:Body></s:Envelope>",
        "status": 200,
        "response": "<?xml version=\"1.0\"?>\n<s:Envelope xmlns:s=\"http://schemas.xmlsoap.org/soap/envelope/\" s:encodingStyle=\"http://schemas.xmlsoap.org/soap/encoding/\">\n<s:Body>\n<u:GetGenericHostEntryResponse xmlns:u=\"urn:dslforum-org:service:Hosts:1\">\n<NewIPAddress>10.1.2.1</NewIPAddress>\n<NewAddressSource>Static</NewAddressSource>\n<NewLeaseTimeRemaining>0</NewLeaseTimeRemaining>\n<NewMACAddress>00:11:32:26:1A:C5</NewMACAddress>\n<NewInterfaceType></NewInterfaceType>\n<NewActive>0</NewActive>\n<NewHostName>Homer</NewHostName>\n</u:GetGenericHostEntryResponse>\n</s:Body>\n</s:Envelope>",
        "rawHeaders": [
            "DATE",
            "Mon, 16 Dec 2019 21:17:20 GMT",
            "SERVER",
            "FRITZ!Box 6490 Cable (kdg) UPnP/1.0 AVM FRITZ!Box 6490 Cable (kdg) 141.07.12",
            "CONNECTION",
            "close",
            "CONTENT-LENGTH",
            "568",
            "CONTENT-TYPE",
            "text/xml; charset=\"utf-8\"",
            "EXT",
            ""
        ],
        "responseIsBinary": false
    },
    {
        "scope": "http://fritz.box:49000",
        "method": "POST",
        "path": "/upnp/control/hosts",
        "body": "<?xml version=\"1.0\"?><s:Envelope s:encodingStyle=\"http://schemas.xmlsoap.org/soap/encoding/\" xmlns:s=\"http://schemas.xmlsoap.org/soap/envelope/\"><s:Body><u:GetGenericHostEntry xmlns:u=\"urn:dslforum-org:service:Hosts:1\"><NewIndex>3</NewIndex></u:GetGenericHostEntry></s:Body></s:Envelope>",
        "status": 200,
        "response": "<?xml version=\"1.0\"?>\n<s:Envelope xmlns:s=\"http://schemas.xmlsoap.org/soap/envelope/\" s:encodingStyle=\"http://schemas.xmlsoap.org/soap/encoding/\">\n<s:Body>\n<u:GetGenericHostEntryResponse xmlns:u=\"urn:dslforum-org:service:Hosts:1\">\n<NewIPAddress>10.1.2.62</NewIPAddress>\n<NewAddressSource>DHCP</NewAddressSource>\n<NewLeaseTimeRemaining>838236</NewLeaseTimeRemaining>\n<NewMACAddress>00:04:20:FE:AF:78</NewMACAddress>\n<NewInterfaceType>802.11</NewInterfaceType>\n<NewActive>1</NewActive>\n<NewHostName>HarmonyHub</NewHostName>\n</u:GetGenericHostEntryResponse>\n</s:Body>\n</s:Envelope>",
        "rawHeaders": [
            "DATE",
            "Mon, 16 Dec 2019 21:17:21 GMT",
            "SERVER",
            "FRITZ!Box 6490 Cable (kdg) UPnP/1.0 AVM FRITZ!Box 6490 Cable (kdg) 141.07.12",
            "CONNECTION",
            "close",
            "CONTENT-LENGTH",
            "583",
            "CONTENT-TYPE",
            "text/xml; charset=\"utf-8\"",
            "EXT",
            ""
        ],
        "responseIsBinary": false
    },
    {
        "scope": "http://fritz.box:49000",
        "method": "POST",
        "path": "/upnp/control/hosts",
        "body": "<?xml version=\"1.0\"?><s:Envelope s:encodingStyle=\"http://schemas.xmlsoap.org/soap/encoding/\" xmlns:s=\"http://schemas.xmlsoap.org/soap/envelope/\"><s:Body><u:GetGenericHostEntry xmlns:u=\"urn:dslforum-org:service:Hosts:1\"><NewIndex>6</NewIndex></u:GetGenericHostEntry></s:Body></s:Envelope>",
        "status": 200,
        "response": "<?xml version=\"1.0\"?>\n<s:Envelope xmlns:s=\"http://schemas.xmlsoap.org/soap/envelope/\" s:encodingStyle=\"http://schemas.xmlsoap.org/soap/encoding/\">\n<s:Body>\n<u:GetGenericHostEntryResponse xmlns:u=\"urn:dslforum-org:service:Hosts:1\">\n<NewIPAddress>10.1.2.57</NewIPAddress>\n<NewAddressSource>DHCP</NewAddressSource>\n<NewLeaseTimeRemaining>464685</NewLeaseTimeRemaining>\n<NewMACAddress>5C:AA:FD:99:8A:A6</NewMACAddress>\n<NewInterfaceType>802.11</NewInterfaceType>\n<NewActive>1</NewActive>\n<NewHostName>SonosZP</NewHostName>\n</u:GetGenericHostEntryResponse>\n</s:Body>\n</s:Envelope>",
        "rawHeaders": [
            "DATE",
            "Mon, 16 Dec 2019 21:17:21 GMT",
            "SERVER",
            "FRITZ!Box 6490 Cable (kdg) UPnP/1.0 AVM FRITZ!Box 6490 Cable (kdg) 141.07.12",
            "CONNECTION",
            "close",
            "CONTENT-LENGTH",
            "580",
            "CONTENT-TYPE",
            "text/xml; charset=\"utf-8\"",
            "EXT",
            ""
        ],
        "responseIsBinary": false
    },
    {
        "scope": "http://fritz.box:49000",
        "method": "POST",
        "path": "/upnp/control/hosts",
        "body": "<?xml version=\"1.0\"?><s:Envelope s:encodingStyle=\"http://schemas.xmlsoap.org/soap/encoding/\" xmlns:s=\"http://schemas.xmlsoap.org/soap/envelope/\"><s:Body><u:GetGenericHostEntry xmlns:u=\"urn:dslforum-org:service:Hosts:1\"><NewIndex>5</NewIndex></u:GetGenericHostEntry></s:Body></s:Envelope>",
        "status": 200,
        "response": "<?xml version=\"1.0\"?>\n<s:Envelope xmlns:s=\"http://schemas.xmlsoap.org/soap/envelope/\" s:encodingStyle=\"http://schemas.xmlsoap.org/soap/encoding/\">\n<s:Body>\n<u:GetGenericHostEntryResponse xmlns:u=\"urn:dslforum-org:service:Hosts:1\">\n<NewIPAddress>10.1.2.56</NewIPAddress>\n<NewAddressSource>DHCP</NewAddressSource>\n<NewLeaseTimeRemaining>464439</NewLeaseTimeRemaining>\n<NewMACAddress>00:17:88:28:5A:2E</NewMACAddress>\n<NewInterfaceType>Ethernet</NewInterfaceType>\n<NewActive>1</NewActive>\n<NewHostName>Hue-Bridge</NewHostName>\n</u:GetGenericHostEntryResponse>\n</s:Body>\n</s:Envelope>",
        "rawHeaders": [
            "DATE",
            "Mon, 16 Dec 2019 21:17:21 GMT",
            "SERVER",
            "FRITZ!Box 6490 Cable (kdg) UPnP/1.0 AVM FRITZ!Box 6490 Cable (kdg) 141.07.12",
            "CONNECTION",
            "close",
            "CONTENT-LENGTH",
            "587",
            "CONTENT-TYPE",
            "text/xml; charset=\"utf-8\"",
            "EXT",
            ""
        ],
        "responseIsBinary": false
    },
    {
        "scope": "http://fritz.box:49000",
        "method": "POST",
        "path": "/upnp/control/hosts",
        "body": "<?xml version=\"1.0\"?><s:Envelope s:encodingStyle=\"http://schemas.xmlsoap.org/soap/encoding/\" xmlns:s=\"http://schemas.xmlsoap.org/soap/envelope/\"><s:Body><u:GetGenericHostEntry xmlns:u=\"urn:dslforum-org:service:Hosts:1\"><NewIndex>8</NewIndex></u:GetGenericHostEntry></s:Body></s:Envelope>",
        "status": 200,
        "response": "<?xml version=\"1.0\"?>\n<s:Envelope xmlns:s=\"http://schemas.xmlsoap.org/soap/envelope/\" s:encodingStyle=\"http://schemas.xmlsoap.org/soap/encoding/\">\n<s:Body>\n<u:GetGenericHostEntryResponse xmlns:u=\"urn:dslforum-org:service:Hosts:1\">\n<NewIPAddress>10.1.2.54</NewIPAddress>\n<NewAddressSource>DHCP</NewAddressSource>\n<NewLeaseTimeRemaining>1044330</NewLeaseTimeRemaining>\n<NewMACAddress>40:30:04:4F:40:20</NewMACAddress>\n<NewInterfaceType>802.11</NewInterfaceType>\n<NewActive>1</NewActive>\n<NewHostName>johns-iPad-2</NewHostName>\n</u:GetGenericHostEntryResponse>\n</s:Body>\n</s:Envelope>",
        "rawHeaders": [
            "DATE",
            "Mon, 16 Dec 2019 21:17:21 GMT",
            "SERVER",
            "FRITZ!Box 6490 Cable (kdg) UPnP/1.0 AVM FRITZ!Box 6490 Cable (kdg) 141.07.12",
            "CONNECTION",
            "close",
            "CONTENT-LENGTH",
            "585",
            "CONTENT-TYPE",
            "text/xml; charset=\"utf-8\"",
            "EXT",
            ""
        ],
        "responseIsBinary": false
    },
    {
        "scope": "http://fritz.box:49000",
        "method": "POST",
        "path": "/upnp/control/hosts",
        "body": "<?xml version=\"1.0\"?><s:Envelope s:encodingStyle=\"http://schemas.xmlsoap.org/soap/encoding/\" xmlns:s=\"http://schemas.xmlsoap.org/soap/envelope/\"><s:Body><u:GetGenericHostEntry xmlns:u=\"urn:dslforum-org:service:Hosts:1\"><NewIndex>7</NewIndex></u:GetGenericHostEntry></s:Body></s:Envelope>",
        "status": 200,
        "response": "<?xml version=\"1.0\"?>\n<s:Envelope xmlns:s=\"http://schemas.xmlsoap.org/soap/envelope/\" s:encodingStyle=\"http://schemas.xmlsoap.org/soap/encoding/\">\n<s:Body>\n<u:GetGenericHostEntryResponse xmlns:u=\"urn:dslforum-org:service:Hosts:1\">\n<NewIPAddress>10.1.2.58</NewIPAddress>\n<NewAddressSource>DHCP</NewAddressSource>\n<NewLeaseTimeRemaining>464685</NewLeaseTimeRemaining>\n<NewMACAddress>94:9F:3E:1E:39:62</NewMACAddress>\n<NewInterfaceType>802.11</NewInterfaceType>\n<NewActive>1</NewActive>\n<NewHostName>SonosZP</NewHostName>\n</u:GetGenericHostEntryResponse>\n</s:Body>\n</s:Envelope>",
        "rawHeaders": [
            "DATE",
            "Mon, 16 Dec 2019 21:17:21 GMT",
            "SERVER",
            "FRITZ!Box 6490 Cable (kdg) UPnP/1.0 AVM FRITZ!Box 6490 Cable (kdg) 141.07.12",
            "CONNECTION",
            "close",
            "CONTENT-LENGTH",
            "580",
            "CONTENT-TYPE",
            "text/xml; charset=\"utf-8\"",
            "EXT",
            ""
        ],
        "responseIsBinary": false
    },
    {
        "scope": "http://fritz.box:49000",
        "method": "POST",
        "path": "/upnp/control/hosts",
        "body": "<?xml version=\"1.0\"?><s:Envelope s:encodingStyle=\"http://schemas.xmlsoap.org/soap/encoding/\" xmlns:s=\"http://schemas.xmlsoap.org/soap/envelope/\"><s:Body><u:GetGenericHostEntry xmlns:u=\"urn:dslforum-org:service:Hosts:1\"><NewIndex>10</NewIndex></u:GetGenericHostEntry></s:Body></s:Envelope>",
        "status": 200,
        "response": "<?xml version=\"1.0\"?>\n<s:Envelope xmlns:s=\"http://schemas.xmlsoap.org/soap/envelope/\" s:encodingStyle=\"http://schemas.xmlsoap.org/soap/encoding/\">\n<s:Body>\n<u:GetGenericHostEntryResponse xmlns:u=\"urn:dslforum-org:service:Hosts:1\">\n<NewIPAddress>10.1.2.60</NewIPAddress>\n<NewAddressSource>DHCP</NewAddressSource>\n<NewLeaseTimeRemaining>838219</NewLeaseTimeRemaining>\n<NewMACAddress>34:D2:70:34:6A:8A</NewMACAddress>\n<NewInterfaceType>802.11</NewInterfaceType>\n<NewActive>1</NewActive>\n<NewHostName>amazon-X123</NewHostName>\n</u:GetGenericHostEntryResponse>\n</s:Body>\n</s:Envelope>",
        "rawHeaders": [
            "DATE",
            "Mon, 16 Dec 2019 21:17:21 GMT",
            "SERVER",
            "FRITZ!Box 6490 Cable (kdg) UPnP/1.0 AVM FRITZ!Box 6490 Cable (kdg) 141.07.12",
            "CONNECTION",
            "close",
            "CONTENT-LENGTH",
            "589",
            "CONTENT-TYPE",
            "text/xml; charset=\"utf-8\"",
            "EXT",
            ""
        ],
        "responseIsBinary": false
    },
    {
        "scope": "http://fritz.box:49000",
        "method": "POST",
        "path": "/upnp/control/hosts",
        "body": "<?xml version=\"1.0\"?><s:Envelope s:encodingStyle=\"http://schemas.xmlsoap.org/soap/encoding/\" xmlns:s=\"http://schemas.xmlsoap.org/soap/envelope/\"><s:Body><u:GetGenericHostEntry xmlns:u=\"urn:dslforum-org:service:Hosts:1\"><NewIndex>9</NewIndex></u:GetGenericHostEntry></s:Body></s:Envelope>",
        "status": 200,
        "response": "<?xml version=\"1.0\"?>\n<s:Envelope xmlns:s=\"http://schemas.xmlsoap.org/soap/envelope/\" s:encodingStyle=\"http://schemas.xmlsoap.org/soap/encoding/\">\n<s:Body>\n<u:GetGenericHostEntryResponse xmlns:u=\"urn:dslforum-org:service:Hosts:1\">\n<NewIPAddress>10.1.2.53</NewIPAddress>\n<NewAddressSource>DHCP</NewAddressSource>\n<NewLeaseTimeRemaining>850346</NewLeaseTimeRemaining>\n<NewMACAddress>78:4F:43:01:67:33</NewMACAddress>\n<NewInterfaceType></NewInterfaceType>\n<NewActive>0</NewActive>\n<NewHostName>jane-iphone</NewHostName>\n</u:GetGenericHostEntryResponse>\n</s:Body>\n</s:Envelope>",
        "rawHeaders": [
            "DATE",
            "Mon, 16 Dec 2019 21:17:21 GMT",
            "SERVER",
            "FRITZ!Box 6490 Cable (kdg) UPnP/1.0 AVM FRITZ!Box 6490 Cable (kdg) 141.07.12",
            "CONNECTION",
            "close",
            "CONTENT-LENGTH",
            "582",
            "CONTENT-TYPE",
            "text/xml; charset=\"utf-8\"",
            "EXT",
            ""
        ],
        "responseIsBinary": false
    },
    {
        "scope": "http://fritz.box:49000",
        "method": "POST",
        "path": "/upnp/control/hosts",
        "body": "<?xml version=\"1.0\"?><s:Envelope s:encodingStyle=\"http://schemas.xmlsoap.org/soap/encoding/\" xmlns:s=\"http://schemas.xmlsoap.org/soap/envelope/\"><s:Body><u:GetGenericHostEntry xmlns:u=\"urn:dslforum-org:service:Hosts:1\"><NewIndex>12</NewIndex></u:GetGenericHostEntry></s:Body></s:Envelope>",
        "status": 200,
        "response": "<?xml version=\"1.0\"?>\n<s:Envelope xmlns:s=\"http://schemas.xmlsoap.org/soap/envelope/\" s:encodingStyle=\"http://schemas.xmlsoap.org/soap/encoding/\">\n<s:Body>\n<u:GetGenericHostEntryResponse xmlns:u=\"urn:dslforum-org:service:Hosts:1\">\n<NewIPAddress>10.1.2.10</NewIPAddress>\n<NewAddressSource>Static</NewAddressSource>\n<NewLeaseTimeRemaining>0</NewLeaseTimeRemaining>\n<NewMACAddress>00:1A:22:02:B7:EA</NewMACAddress>\n<NewInterfaceType>Ethernet</NewInterfaceType>\n<NewActive>1</NewActive>\n<NewHostName>homematic</NewHostName>\n</u:GetGenericHostEntryResponse>\n</s:Body>\n</s:Envelope>",
        "rawHeaders": [
            "DATE",
            "Mon, 16 Dec 2019 21:17:22 GMT",
            "SERVER",
            "FRITZ!Box 6490 Cable (kdg) UPnP/1.0 AVM FRITZ!Box 6490 Cable (kdg) 141.07.12",
            "CONNECTION",
            "close",
            "CONTENT-LENGTH",
            "581",
            "CONTENT-TYPE",
            "text/xml; charset=\"utf-8\"",
            "EXT",
            ""
        ],
        "responseIsBinary": false
    },
    {
        "scope": "http://fritz.box:49000",
        "method": "POST",
        "path": "/upnp/control/hosts",
        "body": "<?xml version=\"1.0\"?><s:Envelope s:encodingStyle=\"http://schemas.xmlsoap.org/soap/encoding/\" xmlns:s=\"http://schemas.xmlsoap.org/soap/envelope/\"><s:Body><u:GetGenericHostEntry xmlns:u=\"urn:dslforum-org:service:Hosts:1\"><NewIndex>11</NewIndex></u:GetGenericHostEntry></s:Body></s:Envelope>",
        "status": 200,
        "response": "<?xml version=\"1.0\"?>\n<s:Envelope xmlns:s=\"http://schemas.xmlsoap.org/soap/envelope/\" s:encodingStyle=\"http://schemas.xmlsoap.org/soap/encoding/\">\n<s:Body>\n<u:GetGenericHostEntryResponse xmlns:u=\"urn:dslforum-org:service:Hosts:1\">\n<NewIPAddress>10.1.2.254</NewIPAddress>\n<NewAddressSource>Static</NewAddressSource>\n<NewLeaseTimeRemaining>0</NewLeaseTimeRemaining>\n<NewMACAddress>44:4E:6D:4E:0B:9A</NewMACAddress>\n<NewInterfaceType></NewInterfaceType>\n<NewActive>1</NewActive>\n<NewHostName>fritz.box</NewHostName>\n</u:GetGenericHostEntryResponse>\n</s:Body>\n</s:Envelope>",
        "rawHeaders": [
            "DATE",
            "Mon, 16 Dec 2019 21:17:22 GMT",
            "SERVER",
            "FRITZ!Box 6490 Cable (kdg) UPnP/1.0 AVM FRITZ!Box 6490 Cable (kdg) 141.07.12",
            "CONNECTION",
            "close",
            "CONTENT-LENGTH",
            "574",
            "CONTENT-TYPE",
            "text/xml; charset=\"utf-8\"",
            "EXT",
            ""
        ],
        "responseIsBinary": false
    },
    {
        "scope": "http://fritz.box:49000",
        "method": "POST",
        "path": "/upnp/control/hosts",
        "body": "<?xml version=\"1.0\"?><s:Envelope s:encodingStyle=\"http://schemas.xmlsoap.org/soap/encoding/\" xmlns:s=\"http://schemas.xmlsoap.org/soap/envelope/\"><s:Body><u:GetGenericHostEntry xmlns:u=\"urn:dslforum-org:service:Hosts:1\"><NewIndex>13</NewIndex></u:GetGenericHostEntry></s:Body></s:Envelope>",
        "status": 200,
        "response": "<?xml version=\"1.0\"?>\n<s:Envelope xmlns:s=\"http://schemas.xmlsoap.org/soap/envelope/\" s:encodingStyle=\"http://schemas.xmlsoap.org/soap/encoding/\">\n<s:Body>\n<u:GetGenericHostEntryResponse xmlns:u=\"urn:dslforum-org:service:Hosts:1\">\n<NewIPAddress>10.1.2.59</NewIPAddress>\n<NewAddressSource>DHCP</NewAddressSource>\n<NewLeaseTimeRemaining>1109547</NewLeaseTimeRemaining>\n<NewMACAddress>88:AE:07:43:2A:EB</NewMACAddress>\n<NewInterfaceType>802.11</NewInterfaceType>\n<NewActive>1</NewActive>\n<NewHostName>iPad-2</NewHostName>\n</u:GetGenericHostEntryResponse>\n</s:Body>\n</s:Envelope>",
        "rawHeaders": [
            "DATE",
            "Mon, 16 Dec 2019 21:17:22 GMT",
            "SERVER",
            "FRITZ!Box 6490 Cable (kdg) UPnP/1.0 AVM FRITZ!Box 6490 Cable (kdg) 141.07.12",
            "CONNECTION",
            "close",
            "CONTENT-LENGTH",
            "580",
            "CONTENT-TYPE",
            "text/xml; charset=\"utf-8\"",
            "EXT",
            ""
        ],
        "responseIsBinary": false
    },
    {
        "scope": "http://fritz.box:49000",
        "method": "POST",
        "path": "/upnp/control/hosts",
        "body": "<?xml version=\"1.0\"?><s:Envelope s:encodingStyle=\"http://schemas.xmlsoap.org/soap/encoding/\" xmlns:s=\"http://schemas.xmlsoap.org/soap/envelope/\"><s:Body><u:GetGenericHostEntry xmlns:u=\"urn:dslforum-org:service:Hosts:1\"><NewIndex>14</NewIndex></u:GetGenericHostEntry></s:Body></s:Envelope>",
        "status": 200,
        "response": "<?xml version=\"1.0\"?>\n<s:Envelope xmlns:s=\"http://schemas.xmlsoap.org/soap/envelope/\" s:encodingStyle=\"http://schemas.xmlsoap.org/soap/encoding/\">\n<s:Body>\n<u:GetGenericHostEntryResponse xmlns:u=\"urn:dslforum-org:service:Hosts:1\">\n<NewIPAddress>10.1.2.50</NewIPAddress>\n<NewAddressSource>DHCP</NewAddressSource>\n<NewLeaseTimeRemaining>1109627</NewLeaseTimeRemaining>\n<NewMACAddress>8C:85:90:9F:3F:83</NewMACAddress>\n<NewInterfaceType>802.11</NewInterfaceType>\n<NewActive>1</NewActive>\n<NewHostName>macbook</NewHostName>\n</u:GetGenericHostEntryResponse>\n</s:Body>\n</s:Envelope>",
        "rawHeaders": [
            "DATE",
            "Mon, 16 Dec 2019 21:17:22 GMT",
            "SERVER",
            "FRITZ!Box 6490 Cable (kdg) UPnP/1.0 AVM FRITZ!Box 6490 Cable (kdg) 141.07.12",
            "CONNECTION",
            "close",
            "CONTENT-LENGTH",
            "581",
            "CONTENT-TYPE",
            "text/xml; charset=\"utf-8\"",
            "EXT",
            ""
        ],
        "responseIsBinary": false
    },
    {
        "scope": "http://fritz.box:49000",
        "method": "POST",
        "path": "/upnp/control/hosts",
        "body": "<?xml version=\"1.0\"?><s:Envelope s:encodingStyle=\"http://schemas.xmlsoap.org/soap/encoding/\" xmlns:s=\"http://schemas.xmlsoap.org/soap/envelope/\"><s:Body><u:GetGenericHostEntry xmlns:u=\"urn:dslforum-org:service:Hosts:1\"><NewIndex>15</NewIndex></u:GetGenericHostEntry></s:Body></s:Envelope>",
        "status": 200,
        "response": "<?xml version=\"1.0\"?>\n<s:Envelope xmlns:s=\"http://schemas.xmlsoap.org/soap/envelope/\" s:encodingStyle=\"http://schemas.xmlsoap.org/soap/encoding/\">\n<s:Body>\n<u:GetGenericHostEntryResponse xmlns:u=\"urn:dslforum-org:service:Hosts:1\">\n<NewIPAddress>10.1.2.55</NewIPAddress>\n<NewAddressSource>DHCP</NewAddressSource>\n<NewLeaseTimeRemaining>0</NewLeaseTimeRemaining>\n<NewMACAddress>B8:27:EB:65:DD:85</NewMACAddress>\n<NewInterfaceType></NewInterfaceType>\n<NewActive>0</NewActive>\n<NewHostName>raspberrypi</NewHostName>\n</u:GetGenericHostEntryResponse>\n</s:Body>\n</s:Envelope>",
        "rawHeaders": [
            "DATE",
            "Mon, 16 Dec 2019 21:17:22 GMT",
            "SERVER",
            "FRITZ!Box 6490 Cable (kdg) UPnP/1.0 AVM FRITZ!Box 6490 Cable (kdg) 141.07.12",
            "CONNECTION",
            "close",
            "CONTENT-LENGTH",
            "573",
            "CONTENT-TYPE",
            "text/xml; charset=\"utf-8\"",
            "EXT",
            ""
        ],
        "responseIsBinary": false
    },
    {
        "scope": "http://fritz.box:49000",
        "method": "POST",
        "path": "/upnp/control/hosts",
        "body": "<?xml version=\"1.0\"?><s:Envelope s:encodingStyle=\"http://schemas.xmlsoap.org/soap/encoding/\" xmlns:s=\"http://schemas.xmlsoap.org/soap/envelope/\"><s:Body><u:GetGenericHostEntry xmlns:u=\"urn:dslforum-org:service:Hosts:1\"><NewIndex>16</NewIndex></u:GetGenericHostEntry></s:Body></s:Envelope>",
        "status": 200,
        "response": "<?xml version=\"1.0\"?>\n<s:Envelope xmlns:s=\"http://schemas.xmlsoap.org/soap/envelope/\" s:encodingStyle=\"http://schemas.xmlsoap.org/soap/encoding/\">\n<s:Body>\n<u:GetGenericHostEntryResponse xmlns:u=\"urn:dslforum-org:service:Hosts:1\">\n<NewIPAddress>10.1.2.61</NewIPAddress>\n<NewAddressSource>DHCP</NewAddressSource>\n<NewLeaseTimeRemaining>864000</NewLeaseTimeRemaining>\n<NewMACAddress>B8:27:EB:30:88:D0</NewMACAddress>\n<NewInterfaceType></NewInterfaceType>\n<NewActive>0</NewActive>\n<NewHostName>raspberrypi</NewHostName>\n</u:GetGenericHostEntryResponse>\n</s:Body>\n</s:Envelope>",
        "rawHeaders": [
            "DATE",
            "Mon, 16 Dec 2019 21:17:22 GMT",
            "SERVER",
            "FRITZ!Box 6490 Cable (kdg) UPnP/1.0 AVM FRITZ!Box 6490 Cable (kdg) 141.07.12",
            "CONNECTION",
            "close",
            "CONTENT-LENGTH",
            "578",
            "CONTENT-TYPE",
            "text/xml; charset=\"utf-8\"",
            "EXT",
            ""
        ],
        "responseIsBinary": false
    }
]